%TF.GenerationSoftware,KiCad,Pcbnew,6.0.6-1.fc36*%
%TF.CreationDate,2022-07-31T16:50:48-04:00*%
%TF.ProjectId,returned_energy_dump,72657475-726e-4656-945f-656e65726779,rev?*%
%TF.SameCoordinates,Original*%
%TF.FileFunction,Legend,Bot*%
%TF.FilePolarity,Positive*%
%FSLAX46Y46*%
G04 Gerber Fmt 4.6, Leading zero omitted, Abs format (unit mm)*
G04 Created by KiCad (PCBNEW 6.0.6-1.fc36) date 2022-07-31 16:50:48*
%MOMM*%
%LPD*%
G01*
G04 APERTURE LIST*
%ADD10C,0.150000*%
G04 APERTURE END LIST*
D10*
X143705238Y-129285714D02*
X144657619Y-129952380D01*
X143705238Y-130428571D02*
X145705238Y-130428571D01*
X145705238Y-129666666D01*
X145610000Y-129476190D01*
X145514761Y-129380952D01*
X145324285Y-129285714D01*
X145038571Y-129285714D01*
X144848095Y-129380952D01*
X144752857Y-129476190D01*
X144657619Y-129666666D01*
X144657619Y-130428571D01*
X144752857Y-128428571D02*
X144752857Y-127761904D01*
X143705238Y-127476190D02*
X143705238Y-128428571D01*
X145705238Y-128428571D01*
X145705238Y-127476190D01*
X143705238Y-126619047D02*
X145705238Y-126619047D01*
X145705238Y-126142857D01*
X145610000Y-125857142D01*
X145419523Y-125666666D01*
X145229047Y-125571428D01*
X144848095Y-125476190D01*
X144562380Y-125476190D01*
X144181428Y-125571428D01*
X143990952Y-125666666D01*
X143800476Y-125857142D01*
X143705238Y-126142857D01*
X143705238Y-126619047D01*
X145038571Y-123761904D02*
X143705238Y-123761904D01*
X145038571Y-124619047D02*
X143990952Y-124619047D01*
X143800476Y-124523809D01*
X143705238Y-124333333D01*
X143705238Y-124047619D01*
X143800476Y-123857142D01*
X143895714Y-123761904D01*
X143705238Y-122809523D02*
X145038571Y-122809523D01*
X144848095Y-122809523D02*
X144943333Y-122714285D01*
X145038571Y-122523809D01*
X145038571Y-122238095D01*
X144943333Y-122047619D01*
X144752857Y-121952380D01*
X143705238Y-121952380D01*
X144752857Y-121952380D02*
X144943333Y-121857142D01*
X145038571Y-121666666D01*
X145038571Y-121380952D01*
X144943333Y-121190476D01*
X144752857Y-121095238D01*
X143705238Y-121095238D01*
X145038571Y-120142857D02*
X143038571Y-120142857D01*
X144943333Y-120142857D02*
X145038571Y-119952380D01*
X145038571Y-119571428D01*
X144943333Y-119380952D01*
X144848095Y-119285714D01*
X144657619Y-119190476D01*
X144086190Y-119190476D01*
X143895714Y-119285714D01*
X143800476Y-119380952D01*
X143705238Y-119571428D01*
X143705238Y-119952380D01*
X143800476Y-120142857D01*
X143705238Y-116809523D02*
X145038571Y-116809523D01*
X144657619Y-116809523D02*
X144848095Y-116714285D01*
X144943333Y-116619047D01*
X145038571Y-116428571D01*
X145038571Y-116238095D01*
X143800476Y-114809523D02*
X143705238Y-115000000D01*
X143705238Y-115380952D01*
X143800476Y-115571428D01*
X143990952Y-115666666D01*
X144752857Y-115666666D01*
X144943333Y-115571428D01*
X145038571Y-115380952D01*
X145038571Y-115000000D01*
X144943333Y-114809523D01*
X144752857Y-114714285D01*
X144562380Y-114714285D01*
X144371904Y-115666666D01*
X145038571Y-114047619D02*
X143705238Y-113571428D01*
X145038571Y-113095238D01*
X145705238Y-110428571D02*
X145705238Y-110238095D01*
X145610000Y-110047619D01*
X145514761Y-109952380D01*
X145324285Y-109857142D01*
X144943333Y-109761904D01*
X144467142Y-109761904D01*
X144086190Y-109857142D01*
X143895714Y-109952380D01*
X143800476Y-110047619D01*
X143705238Y-110238095D01*
X143705238Y-110428571D01*
X143800476Y-110619047D01*
X143895714Y-110714285D01*
X144086190Y-110809523D01*
X144467142Y-110904761D01*
X144943333Y-110904761D01*
X145324285Y-110809523D01*
X145514761Y-110714285D01*
X145610000Y-110619047D01*
X145705238Y-110428571D01*
X145514761Y-109000000D02*
X145610000Y-108904761D01*
X145705238Y-108714285D01*
X145705238Y-108238095D01*
X145610000Y-108047619D01*
X145514761Y-107952380D01*
X145324285Y-107857142D01*
X145133809Y-107857142D01*
X144848095Y-107952380D01*
X143705238Y-109095238D01*
X143705238Y-107857142D01*
X143895714Y-107000000D02*
X143800476Y-106904761D01*
X143705238Y-107000000D01*
X143800476Y-107095238D01*
X143895714Y-107000000D01*
X143705238Y-107000000D01*
X143705238Y-106047619D02*
X145038571Y-106047619D01*
X144848095Y-106047619D02*
X144943333Y-105952380D01*
X145038571Y-105761904D01*
X145038571Y-105476190D01*
X144943333Y-105285714D01*
X144752857Y-105190476D01*
X143705238Y-105190476D01*
X144752857Y-105190476D02*
X144943333Y-105095238D01*
X145038571Y-104904761D01*
X145038571Y-104619047D01*
X144943333Y-104428571D01*
X144752857Y-104333333D01*
X143705238Y-104333333D01*
X143705238Y-103380952D02*
X145705238Y-103380952D01*
X144467142Y-103190476D02*
X143705238Y-102619047D01*
X145038571Y-102619047D02*
X144276666Y-103380952D01*
X145038571Y-101761904D02*
X143324285Y-101761904D01*
X143133809Y-101857142D01*
X143038571Y-102047619D01*
X143038571Y-102142857D01*
X145705238Y-101761904D02*
X145610000Y-101857142D01*
X145514761Y-101761904D01*
X145610000Y-101666666D01*
X145705238Y-101761904D01*
X145514761Y-101761904D01*
X145705238Y-98714285D02*
X144276666Y-98714285D01*
X143990952Y-98809523D01*
X143800476Y-99000000D01*
X143705238Y-99285714D01*
X143705238Y-99476190D01*
X145038571Y-96904761D02*
X143705238Y-96904761D01*
X145038571Y-97761904D02*
X143990952Y-97761904D01*
X143800476Y-97666666D01*
X143705238Y-97476190D01*
X143705238Y-97190476D01*
X143800476Y-97000000D01*
X143895714Y-96904761D01*
X143705238Y-95666666D02*
X143800476Y-95857142D01*
X143990952Y-95952380D01*
X145705238Y-95952380D01*
X145705238Y-93285714D02*
X145324285Y-93476190D01*
X145514761Y-92523809D02*
X145610000Y-92428571D01*
X145705238Y-92238095D01*
X145705238Y-91761904D01*
X145610000Y-91571428D01*
X145514761Y-91476190D01*
X145324285Y-91380952D01*
X145133809Y-91380952D01*
X144848095Y-91476190D01*
X143705238Y-92619047D01*
X143705238Y-91380952D01*
X145514761Y-90619047D02*
X145610000Y-90523809D01*
X145705238Y-90333333D01*
X145705238Y-89857142D01*
X145610000Y-89666666D01*
X145514761Y-89571428D01*
X145324285Y-89476190D01*
X145133809Y-89476190D01*
X144848095Y-89571428D01*
X143705238Y-90714285D01*
X143705238Y-89476190D01*
X140485238Y-112428571D02*
X142485238Y-112428571D01*
X141056666Y-111761904D01*
X142485238Y-111095238D01*
X140485238Y-111095238D01*
X140485238Y-110142857D02*
X142485238Y-110142857D01*
X140485238Y-109000000D02*
X141628095Y-109857142D01*
X142485238Y-109000000D02*
X141342380Y-110142857D01*
X142485238Y-107571428D02*
X141056666Y-107571428D01*
X140770952Y-107666666D01*
X140580476Y-107857142D01*
X140485238Y-108142857D01*
X140485238Y-108333333D01*
M02*
