%TF.GenerationSoftware,KiCad,Pcbnew,6.0.6-1.fc36*%
%TF.CreationDate,2022-07-31T16:50:48-04:00*%
%TF.ProjectId,returned_energy_dump,72657475-726e-4656-945f-656e65726779,rev?*%
%TF.SameCoordinates,Original*%
%TF.FileFunction,Copper,L1,Top*%
%TF.FilePolarity,Positive*%
%FSLAX46Y46*%
G04 Gerber Fmt 4.6, Leading zero omitted, Abs format (unit mm)*
G04 Created by KiCad (PCBNEW 6.0.6-1.fc36) date 2022-07-31 16:50:48*
%MOMM*%
%LPD*%
G01*
G04 APERTURE LIST*
G04 Aperture macros list*
%AMRoundRect*
0 Rectangle with rounded corners*
0 $1 Rounding radius*
0 $2 $3 $4 $5 $6 $7 $8 $9 X,Y pos of 4 corners*
0 Add a 4 corners polygon primitive as box body*
4,1,4,$2,$3,$4,$5,$6,$7,$8,$9,$2,$3,0*
0 Add four circle primitives for the rounded corners*
1,1,$1+$1,$2,$3*
1,1,$1+$1,$4,$5*
1,1,$1+$1,$6,$7*
1,1,$1+$1,$8,$9*
0 Add four rect primitives between the rounded corners*
20,1,$1+$1,$2,$3,$4,$5,0*
20,1,$1+$1,$4,$5,$6,$7,0*
20,1,$1+$1,$6,$7,$8,$9,0*
20,1,$1+$1,$8,$9,$2,$3,0*%
G04 Aperture macros list end*
%TA.AperFunction,ComponentPad*%
%ADD10O,1.600000X1.600000*%
%TD*%
%TA.AperFunction,ComponentPad*%
%ADD11C,1.600000*%
%TD*%
%TA.AperFunction,ComponentPad*%
%ADD12R,1.600000X1.600000*%
%TD*%
%TA.AperFunction,ComponentPad*%
%ADD13R,2.000000X1.905000*%
%TD*%
%TA.AperFunction,ComponentPad*%
%ADD14O,2.000000X1.905000*%
%TD*%
%TA.AperFunction,ComponentPad*%
%ADD15R,1.800000X1.800000*%
%TD*%
%TA.AperFunction,ComponentPad*%
%ADD16O,1.800000X1.800000*%
%TD*%
%TA.AperFunction,ComponentPad*%
%ADD17R,1.700000X1.700000*%
%TD*%
%TA.AperFunction,ComponentPad*%
%ADD18O,1.700000X1.700000*%
%TD*%
%TA.AperFunction,ComponentPad*%
%ADD19C,2.000000*%
%TD*%
%TA.AperFunction,ComponentPad*%
%ADD20RoundRect,0.249999X1.300001X1.300001X-1.300001X1.300001X-1.300001X-1.300001X1.300001X-1.300001X0*%
%TD*%
%TA.AperFunction,ComponentPad*%
%ADD21C,3.100000*%
%TD*%
%TA.AperFunction,ComponentPad*%
%ADD22C,2.400000*%
%TD*%
%TA.AperFunction,ComponentPad*%
%ADD23O,2.400000X2.400000*%
%TD*%
G04 APERTURE END LIST*
D10*
%TO.P,R5,2*%
%TO.N,Vcc*%
X184000000Y-102380000D03*
D11*
%TO.P,R5,1*%
%TO.N,Net-(R5-Pad1)*%
X184000000Y-117620000D03*
%TD*%
D12*
%TO.P,U1,1,NC*%
%TO.N,unconnected-(U1-Pad1)*%
X173700000Y-115200000D03*
D10*
%TO.P,U1,2,C1*%
%TO.N,Net-(D3-Pad2)*%
X173700000Y-117740000D03*
%TO.P,U1,3,C2*%
%TO.N,GND*%
X173700000Y-120280000D03*
%TO.P,U1,4,NC*%
%TO.N,unconnected-(U1-Pad4)*%
X173700000Y-122820000D03*
%TO.P,U1,5,GND*%
%TO.N,GNDREF*%
X181320000Y-122820000D03*
%TO.P,U1,6,VO2*%
%TO.N,Alarm*%
X181320000Y-120280000D03*
%TO.P,U1,7,VO1*%
%TO.N,unconnected-(U1-Pad7)*%
X181320000Y-117740000D03*
%TO.P,U1,8,VCC*%
%TO.N,Net-(R5-Pad1)*%
X181320000Y-115200000D03*
%TD*%
D13*
%TO.P,Q1,1,B*%
%TO.N,Net-(Q1-Pad1)*%
X152000000Y-115000000D03*
D14*
%TO.P,Q1,2,C*%
%TO.N,Net-(Q1-Pad2)*%
X152000000Y-117540000D03*
%TO.P,Q1,3,E*%
%TO.N,Sense*%
X152000000Y-120080000D03*
%TD*%
D11*
%TO.P,R1,1*%
%TO.N,Sense*%
X157150000Y-108000000D03*
D10*
%TO.P,R1,2*%
%TO.N,Power_in*%
X169850000Y-108000000D03*
%TD*%
D11*
%TO.P,R2,1*%
%TO.N,Power_in*%
X152000000Y-97150000D03*
D10*
%TO.P,R2,2*%
%TO.N,Net-(Q1-Pad1)*%
X152000000Y-109850000D03*
%TD*%
D12*
%TO.P,D3,1,K*%
%TO.N,Net-(D3-Pad1)*%
X179000000Y-101690000D03*
D10*
%TO.P,D3,2,A*%
%TO.N,Net-(D3-Pad2)*%
X179000000Y-109310000D03*
%TD*%
D11*
%TO.P,R6,1*%
%TO.N,Vcc*%
X184000000Y-135620000D03*
D10*
%TO.P,R6,2*%
%TO.N,Alarm*%
X184000000Y-120380000D03*
%TD*%
D11*
%TO.P,R4,1*%
%TO.N,Net-(D2-Pad2)*%
X181750000Y-89130000D03*
D10*
%TO.P,R4,2*%
%TO.N,Net-(D3-Pad2)*%
X181750000Y-104370000D03*
%TD*%
D15*
%TO.P,D2,1,K*%
%TO.N,Sense*%
X178000000Y-84650000D03*
D16*
%TO.P,D2,2,A*%
%TO.N,Net-(D2-Pad2)*%
X178000000Y-97350000D03*
%TD*%
D17*
%TO.P,J2,1,Pin_1*%
%TO.N,Vcc*%
X176250000Y-132975000D03*
D18*
%TO.P,J2,2,Pin_2*%
%TO.N,Alarm*%
X176250000Y-135515000D03*
%TO.P,J2,3,Pin_3*%
%TO.N,GNDREF*%
X176250000Y-138055000D03*
%TD*%
D12*
%TO.P,D4,1,K*%
%TO.N,GND*%
X176500000Y-112060000D03*
D10*
%TO.P,D4,2,A*%
%TO.N,Net-(D3-Pad1)*%
X176500000Y-104440000D03*
%TD*%
D19*
%TO.P,C1,1*%
%TO.N,Sense*%
X160750000Y-94000000D03*
%TO.P,C1,2*%
%TO.N,GND*%
X168250000Y-94000000D03*
%TD*%
D14*
%TO.P,D1,1,K*%
%TO.N,Sense*%
X165945000Y-119040000D03*
D13*
%TO.P,D1,2,A*%
%TO.N,Power_in*%
X165945000Y-116500000D03*
D14*
X165945000Y-121580000D03*
%TD*%
D20*
%TO.P,J1,1,Pin_1*%
%TO.N,Power_in*%
X172000000Y-127000000D03*
D21*
%TO.P,J1,2,Pin_2*%
%TO.N,GND*%
X166000000Y-127000000D03*
%TO.P,J1,3,Pin_3*%
%TO.N,Sense*%
X160000000Y-127000000D03*
%TD*%
D22*
%TO.P,R3,1*%
%TO.N,Net-(Q1-Pad2)*%
X143256000Y-140000000D03*
D23*
%TO.P,R3,2*%
%TO.N,GND*%
X143256000Y-84120000D03*
%TD*%
%TA.AperFunction,Conductor*%
%TO.N,GND*%
G36*
X151046001Y-82020002D02*
G01*
X151092494Y-82073658D01*
X151102598Y-82143932D01*
X151073104Y-82208512D01*
X151037033Y-82237251D01*
X150936950Y-82290466D01*
X150936944Y-82290470D01*
X150933058Y-82292536D01*
X150929499Y-82295122D01*
X150929497Y-82295123D01*
X150824895Y-82371121D01*
X150705808Y-82457642D01*
X150503748Y-82652769D01*
X150330812Y-82874118D01*
X150328616Y-82877922D01*
X150328611Y-82877929D01*
X150228002Y-83052190D01*
X150190364Y-83117381D01*
X150085138Y-83377824D01*
X150084073Y-83382097D01*
X150084072Y-83382099D01*
X150019849Y-83639684D01*
X150017183Y-83650376D01*
X149987822Y-83929733D01*
X149997625Y-84210458D01*
X149998387Y-84214781D01*
X149998388Y-84214788D01*
X150022164Y-84349624D01*
X150046402Y-84487087D01*
X150133203Y-84754235D01*
X150256340Y-85006702D01*
X150258795Y-85010341D01*
X150258798Y-85010347D01*
X150331890Y-85118710D01*
X150413415Y-85239576D01*
X150601371Y-85448322D01*
X150816550Y-85628879D01*
X151054764Y-85777731D01*
X151311375Y-85891982D01*
X151581390Y-85969407D01*
X151585740Y-85970018D01*
X151585743Y-85970019D01*
X151688690Y-85984487D01*
X151859552Y-86008500D01*
X152070146Y-86008500D01*
X152072332Y-86008347D01*
X152072336Y-86008347D01*
X152275827Y-85994118D01*
X152275832Y-85994117D01*
X152280212Y-85993811D01*
X152554970Y-85935409D01*
X152559099Y-85933906D01*
X152559103Y-85933905D01*
X152814781Y-85840846D01*
X152814785Y-85840844D01*
X152818926Y-85839337D01*
X153066942Y-85707464D01*
X153171896Y-85631211D01*
X153217423Y-85598134D01*
X176591500Y-85598134D01*
X176598255Y-85660316D01*
X176649385Y-85796705D01*
X176736739Y-85913261D01*
X176853295Y-86000615D01*
X176989684Y-86051745D01*
X177051866Y-86058500D01*
X178948134Y-86058500D01*
X179010316Y-86051745D01*
X179146705Y-86000615D01*
X179263261Y-85913261D01*
X179350615Y-85796705D01*
X179401745Y-85660316D01*
X179408500Y-85598134D01*
X179408500Y-83701866D01*
X179401745Y-83639684D01*
X179350615Y-83503295D01*
X179263261Y-83386739D01*
X179146705Y-83299385D01*
X179010316Y-83248255D01*
X178948134Y-83241500D01*
X177051866Y-83241500D01*
X176989684Y-83248255D01*
X176853295Y-83299385D01*
X176736739Y-83386739D01*
X176649385Y-83503295D01*
X176598255Y-83639684D01*
X176591500Y-83701866D01*
X176591500Y-85598134D01*
X153217423Y-85598134D01*
X153290629Y-85544947D01*
X153290632Y-85544944D01*
X153294192Y-85542358D01*
X153496252Y-85347231D01*
X153669188Y-85125882D01*
X153671384Y-85122078D01*
X153671389Y-85122071D01*
X153807435Y-84886431D01*
X153809636Y-84882619D01*
X153914862Y-84622176D01*
X153948544Y-84487087D01*
X153981753Y-84353893D01*
X153981754Y-84353888D01*
X153982817Y-84349624D01*
X154012178Y-84070267D01*
X154002375Y-83789542D01*
X153986916Y-83701866D01*
X153954360Y-83517236D01*
X153953598Y-83512913D01*
X153866797Y-83245765D01*
X153743660Y-82993298D01*
X153741205Y-82989659D01*
X153741202Y-82989653D01*
X153660935Y-82870653D01*
X153586585Y-82760424D01*
X153398629Y-82551678D01*
X153183450Y-82371121D01*
X153057687Y-82292536D01*
X152962176Y-82232854D01*
X152915006Y-82179793D01*
X152904011Y-82109653D01*
X152932682Y-82044703D01*
X152991916Y-82005564D01*
X153028946Y-82000000D01*
X181977880Y-82000000D01*
X182046001Y-82020002D01*
X182092494Y-82073658D01*
X182102598Y-82143932D01*
X182073104Y-82208512D01*
X182037033Y-82237251D01*
X181936950Y-82290466D01*
X181936944Y-82290470D01*
X181933058Y-82292536D01*
X181929499Y-82295122D01*
X181929497Y-82295123D01*
X181824895Y-82371121D01*
X181705808Y-82457642D01*
X181503748Y-82652769D01*
X181330812Y-82874118D01*
X181328616Y-82877922D01*
X181328611Y-82877929D01*
X181228002Y-83052190D01*
X181190364Y-83117381D01*
X181085138Y-83377824D01*
X181084073Y-83382097D01*
X181084072Y-83382099D01*
X181019849Y-83639684D01*
X181017183Y-83650376D01*
X180987822Y-83929733D01*
X180997625Y-84210458D01*
X180998387Y-84214781D01*
X180998388Y-84214788D01*
X181022164Y-84349624D01*
X181046402Y-84487087D01*
X181133203Y-84754235D01*
X181256340Y-85006702D01*
X181258795Y-85010341D01*
X181258798Y-85010347D01*
X181331890Y-85118710D01*
X181413415Y-85239576D01*
X181601371Y-85448322D01*
X181816550Y-85628879D01*
X182054764Y-85777731D01*
X182311375Y-85891982D01*
X182581390Y-85969407D01*
X182585740Y-85970018D01*
X182585743Y-85970019D01*
X182688690Y-85984487D01*
X182859552Y-86008500D01*
X183070146Y-86008500D01*
X183072332Y-86008347D01*
X183072336Y-86008347D01*
X183275827Y-85994118D01*
X183275832Y-85994117D01*
X183280212Y-85993811D01*
X183554970Y-85935409D01*
X183559099Y-85933906D01*
X183559103Y-85933905D01*
X183814781Y-85840846D01*
X183814785Y-85840844D01*
X183818926Y-85839337D01*
X184066942Y-85707464D01*
X184171896Y-85631211D01*
X184290629Y-85544947D01*
X184290632Y-85544944D01*
X184294192Y-85542358D01*
X184496252Y-85347231D01*
X184669188Y-85125882D01*
X184671384Y-85122078D01*
X184671389Y-85122071D01*
X184764881Y-84960137D01*
X184816263Y-84911144D01*
X184885977Y-84897708D01*
X184951888Y-84924094D01*
X184993070Y-84981926D01*
X185000000Y-85023137D01*
X185000000Y-101240780D01*
X184979998Y-101308901D01*
X184926342Y-101355394D01*
X184856068Y-101365498D01*
X184801729Y-101343993D01*
X184661258Y-101245634D01*
X184661256Y-101245633D01*
X184656749Y-101242477D01*
X184651767Y-101240154D01*
X184651762Y-101240151D01*
X184454225Y-101148039D01*
X184454224Y-101148039D01*
X184449243Y-101145716D01*
X184443935Y-101144294D01*
X184443933Y-101144293D01*
X184233402Y-101087881D01*
X184233400Y-101087881D01*
X184228087Y-101086457D01*
X184000000Y-101066502D01*
X183771913Y-101086457D01*
X183766600Y-101087881D01*
X183766598Y-101087881D01*
X183556067Y-101144293D01*
X183556065Y-101144294D01*
X183550757Y-101145716D01*
X183545776Y-101148039D01*
X183545775Y-101148039D01*
X183348238Y-101240151D01*
X183348233Y-101240154D01*
X183343251Y-101242477D01*
X183248388Y-101308901D01*
X183160211Y-101370643D01*
X183160208Y-101370645D01*
X183155700Y-101373802D01*
X182993802Y-101535700D01*
X182862477Y-101723251D01*
X182860154Y-101728233D01*
X182860151Y-101728238D01*
X182768039Y-101925775D01*
X182765716Y-101930757D01*
X182706457Y-102151913D01*
X182686502Y-102380000D01*
X182706457Y-102608087D01*
X182765716Y-102829243D01*
X182768039Y-102834224D01*
X182768039Y-102834225D01*
X182860151Y-103031762D01*
X182860154Y-103031767D01*
X182862477Y-103036749D01*
X182993802Y-103224300D01*
X183155700Y-103386198D01*
X183160208Y-103389355D01*
X183160211Y-103389357D01*
X183219174Y-103430643D01*
X183343251Y-103517523D01*
X183348233Y-103519846D01*
X183348238Y-103519849D01*
X183502546Y-103591803D01*
X183550757Y-103614284D01*
X183556065Y-103615706D01*
X183556067Y-103615707D01*
X183766598Y-103672119D01*
X183766600Y-103672119D01*
X183771913Y-103673543D01*
X184000000Y-103693498D01*
X184228087Y-103673543D01*
X184233400Y-103672119D01*
X184233402Y-103672119D01*
X184443933Y-103615707D01*
X184443935Y-103615706D01*
X184449243Y-103614284D01*
X184497454Y-103591803D01*
X184651762Y-103519849D01*
X184651767Y-103519846D01*
X184656749Y-103517523D01*
X184735510Y-103462374D01*
X184801729Y-103416007D01*
X184869003Y-103393319D01*
X184937864Y-103410604D01*
X184986448Y-103462374D01*
X185000000Y-103519220D01*
X185000000Y-116480780D01*
X184979998Y-116548901D01*
X184926342Y-116595394D01*
X184856068Y-116605498D01*
X184801729Y-116583993D01*
X184661258Y-116485634D01*
X184661256Y-116485633D01*
X184656749Y-116482477D01*
X184651767Y-116480154D01*
X184651762Y-116480151D01*
X184454225Y-116388039D01*
X184454224Y-116388039D01*
X184449243Y-116385716D01*
X184443935Y-116384294D01*
X184443933Y-116384293D01*
X184233402Y-116327881D01*
X184233400Y-116327881D01*
X184228087Y-116326457D01*
X184000000Y-116306502D01*
X183771913Y-116326457D01*
X183766600Y-116327881D01*
X183766598Y-116327881D01*
X183556067Y-116384293D01*
X183556065Y-116384294D01*
X183550757Y-116385716D01*
X183545776Y-116388039D01*
X183545775Y-116388039D01*
X183348238Y-116480151D01*
X183348233Y-116480154D01*
X183343251Y-116482477D01*
X183289986Y-116519774D01*
X183160211Y-116610643D01*
X183160208Y-116610645D01*
X183155700Y-116613802D01*
X182993802Y-116775700D01*
X182862477Y-116963251D01*
X182860154Y-116968233D01*
X182860151Y-116968238D01*
X182768160Y-117165515D01*
X182765716Y-117170757D01*
X182764294Y-117176062D01*
X182764292Y-117176069D01*
X182757738Y-117200531D01*
X182720787Y-117261154D01*
X182656926Y-117292176D01*
X182586432Y-117283748D01*
X182531685Y-117238546D01*
X182521836Y-117221171D01*
X182459849Y-117088238D01*
X182459846Y-117088233D01*
X182457523Y-117083251D01*
X182356552Y-116939050D01*
X182329357Y-116900211D01*
X182329355Y-116900208D01*
X182326198Y-116895700D01*
X182164300Y-116733802D01*
X182159792Y-116730645D01*
X182159789Y-116730643D01*
X182081611Y-116675902D01*
X181976749Y-116602477D01*
X181971767Y-116600154D01*
X181971762Y-116600151D01*
X181937543Y-116584195D01*
X181884258Y-116537278D01*
X181864797Y-116469001D01*
X181885339Y-116401041D01*
X181937543Y-116355805D01*
X181971762Y-116339849D01*
X181971767Y-116339846D01*
X181976749Y-116337523D01*
X182118458Y-116238297D01*
X182159789Y-116209357D01*
X182159792Y-116209355D01*
X182164300Y-116206198D01*
X182326198Y-116044300D01*
X182356774Y-116000634D01*
X182454366Y-115861257D01*
X182457523Y-115856749D01*
X182459846Y-115851767D01*
X182459849Y-115851762D01*
X182551961Y-115654225D01*
X182551961Y-115654224D01*
X182554284Y-115649243D01*
X182609001Y-115445040D01*
X182612119Y-115433402D01*
X182612119Y-115433400D01*
X182613543Y-115428087D01*
X182633498Y-115200000D01*
X182613543Y-114971913D01*
X182554284Y-114750757D01*
X182551961Y-114745775D01*
X182459849Y-114548238D01*
X182459846Y-114548233D01*
X182457523Y-114543251D01*
X182326198Y-114355700D01*
X182164300Y-114193802D01*
X182159792Y-114190645D01*
X182159789Y-114190643D01*
X182081611Y-114135902D01*
X181976749Y-114062477D01*
X181971767Y-114060154D01*
X181971762Y-114060151D01*
X181774225Y-113968039D01*
X181774224Y-113968039D01*
X181769243Y-113965716D01*
X181763935Y-113964294D01*
X181763933Y-113964293D01*
X181553402Y-113907881D01*
X181553400Y-113907881D01*
X181548087Y-113906457D01*
X181320000Y-113886502D01*
X181091913Y-113906457D01*
X181086600Y-113907881D01*
X181086598Y-113907881D01*
X180876067Y-113964293D01*
X180876065Y-113964294D01*
X180870757Y-113965716D01*
X180865776Y-113968039D01*
X180865775Y-113968039D01*
X180668238Y-114060151D01*
X180668233Y-114060154D01*
X180663251Y-114062477D01*
X180558389Y-114135902D01*
X180480211Y-114190643D01*
X180480208Y-114190645D01*
X180475700Y-114193802D01*
X180313802Y-114355700D01*
X180182477Y-114543251D01*
X180180154Y-114548233D01*
X180180151Y-114548238D01*
X180088039Y-114745775D01*
X180085716Y-114750757D01*
X180026457Y-114971913D01*
X180006502Y-115200000D01*
X180026457Y-115428087D01*
X180027881Y-115433400D01*
X180027881Y-115433402D01*
X180031000Y-115445040D01*
X180085716Y-115649243D01*
X180088039Y-115654224D01*
X180088039Y-115654225D01*
X180180151Y-115851762D01*
X180180154Y-115851767D01*
X180182477Y-115856749D01*
X180185634Y-115861257D01*
X180283227Y-116000634D01*
X180313802Y-116044300D01*
X180475700Y-116206198D01*
X180480208Y-116209355D01*
X180480211Y-116209357D01*
X180521542Y-116238297D01*
X180663251Y-116337523D01*
X180668233Y-116339846D01*
X180668238Y-116339849D01*
X180702457Y-116355805D01*
X180755742Y-116402722D01*
X180775203Y-116470999D01*
X180754661Y-116538959D01*
X180702457Y-116584195D01*
X180668238Y-116600151D01*
X180668233Y-116600154D01*
X180663251Y-116602477D01*
X180558389Y-116675902D01*
X180480211Y-116730643D01*
X180480208Y-116730645D01*
X180475700Y-116733802D01*
X180313802Y-116895700D01*
X180310645Y-116900208D01*
X180310643Y-116900211D01*
X180283448Y-116939050D01*
X180182477Y-117083251D01*
X180180154Y-117088233D01*
X180180151Y-117088238D01*
X180125533Y-117205369D01*
X180085716Y-117290757D01*
X180084294Y-117296065D01*
X180084293Y-117296067D01*
X180044947Y-117442907D01*
X180026457Y-117511913D01*
X180006502Y-117740000D01*
X180026457Y-117968087D01*
X180027881Y-117973400D01*
X180027881Y-117973402D01*
X180084293Y-118183931D01*
X180085716Y-118189243D01*
X180088039Y-118194224D01*
X180088039Y-118194225D01*
X180180151Y-118391762D01*
X180180154Y-118391767D01*
X180182477Y-118396749D01*
X180313802Y-118584300D01*
X180475700Y-118746198D01*
X180480208Y-118749355D01*
X180480211Y-118749357D01*
X180538301Y-118790032D01*
X180663251Y-118877523D01*
X180668233Y-118879846D01*
X180668238Y-118879849D01*
X180702457Y-118895805D01*
X180755742Y-118942722D01*
X180775203Y-119010999D01*
X180754661Y-119078959D01*
X180702457Y-119124195D01*
X180668238Y-119140151D01*
X180668233Y-119140154D01*
X180663251Y-119142477D01*
X180655308Y-119148039D01*
X180480211Y-119270643D01*
X180480208Y-119270645D01*
X180475700Y-119273802D01*
X180313802Y-119435700D01*
X180310645Y-119440208D01*
X180310643Y-119440211D01*
X180283448Y-119479050D01*
X180182477Y-119623251D01*
X180180154Y-119628233D01*
X180180151Y-119628238D01*
X180133519Y-119728242D01*
X180085716Y-119830757D01*
X180084294Y-119836065D01*
X180084293Y-119836067D01*
X180044947Y-119982907D01*
X180026457Y-120051913D01*
X180006502Y-120280000D01*
X180026457Y-120508087D01*
X180027881Y-120513400D01*
X180027881Y-120513402D01*
X180046863Y-120584241D01*
X180085716Y-120729243D01*
X180088039Y-120734224D01*
X180088039Y-120734225D01*
X180180151Y-120931762D01*
X180180154Y-120931767D01*
X180182477Y-120936749D01*
X180313802Y-121124300D01*
X180475700Y-121286198D01*
X180480208Y-121289355D01*
X180480211Y-121289357D01*
X180558389Y-121344098D01*
X180663251Y-121417523D01*
X180668233Y-121419846D01*
X180668238Y-121419849D01*
X180702457Y-121435805D01*
X180755742Y-121482722D01*
X180775203Y-121550999D01*
X180754661Y-121618959D01*
X180702457Y-121664195D01*
X180668238Y-121680151D01*
X180668233Y-121680154D01*
X180663251Y-121682477D01*
X180619947Y-121712799D01*
X180480211Y-121810643D01*
X180480208Y-121810645D01*
X180475700Y-121813802D01*
X180313802Y-121975700D01*
X180182477Y-122163251D01*
X180180154Y-122168233D01*
X180180151Y-122168238D01*
X180172114Y-122185474D01*
X180085716Y-122370757D01*
X180084294Y-122376065D01*
X180084293Y-122376067D01*
X180037906Y-122549185D01*
X180026457Y-122591913D01*
X180006502Y-122820000D01*
X180026457Y-123048087D01*
X180085716Y-123269243D01*
X180088039Y-123274224D01*
X180088039Y-123274225D01*
X180180151Y-123471762D01*
X180180154Y-123471767D01*
X180182477Y-123476749D01*
X180313802Y-123664300D01*
X180475700Y-123826198D01*
X180480208Y-123829355D01*
X180480211Y-123829357D01*
X180558389Y-123884098D01*
X180663251Y-123957523D01*
X180668233Y-123959846D01*
X180668238Y-123959849D01*
X180865775Y-124051961D01*
X180870757Y-124054284D01*
X180876065Y-124055706D01*
X180876067Y-124055707D01*
X181086598Y-124112119D01*
X181086600Y-124112119D01*
X181091913Y-124113543D01*
X181320000Y-124133498D01*
X181548087Y-124113543D01*
X181553400Y-124112119D01*
X181553402Y-124112119D01*
X181763933Y-124055707D01*
X181763935Y-124055706D01*
X181769243Y-124054284D01*
X181774225Y-124051961D01*
X181971762Y-123959849D01*
X181971767Y-123959846D01*
X181976749Y-123957523D01*
X182081611Y-123884098D01*
X182159789Y-123829357D01*
X182159792Y-123829355D01*
X182164300Y-123826198D01*
X182326198Y-123664300D01*
X182457523Y-123476749D01*
X182459846Y-123471767D01*
X182459849Y-123471762D01*
X182551961Y-123274225D01*
X182551961Y-123274224D01*
X182554284Y-123269243D01*
X182613543Y-123048087D01*
X182633498Y-122820000D01*
X182613543Y-122591913D01*
X182602094Y-122549185D01*
X182555707Y-122376067D01*
X182555706Y-122376065D01*
X182554284Y-122370757D01*
X182467886Y-122185474D01*
X182459849Y-122168238D01*
X182459846Y-122168233D01*
X182457523Y-122163251D01*
X182326198Y-121975700D01*
X182164300Y-121813802D01*
X182159792Y-121810645D01*
X182159789Y-121810643D01*
X182020053Y-121712799D01*
X181976749Y-121682477D01*
X181971767Y-121680154D01*
X181971762Y-121680151D01*
X181937543Y-121664195D01*
X181884258Y-121617278D01*
X181864797Y-121549001D01*
X181885339Y-121481041D01*
X181937543Y-121435805D01*
X181971762Y-121419849D01*
X181971767Y-121419846D01*
X181976749Y-121417523D01*
X182081611Y-121344098D01*
X182159789Y-121289357D01*
X182159792Y-121289355D01*
X182164300Y-121286198D01*
X182326198Y-121124300D01*
X182457523Y-120936749D01*
X182459847Y-120931764D01*
X182459851Y-120931758D01*
X182525239Y-120791531D01*
X182572156Y-120738245D01*
X182640433Y-120718784D01*
X182708393Y-120739326D01*
X182754459Y-120793348D01*
X182761141Y-120812169D01*
X182765716Y-120829243D01*
X182768039Y-120834224D01*
X182768039Y-120834225D01*
X182860151Y-121031762D01*
X182860154Y-121031767D01*
X182862477Y-121036749D01*
X182889792Y-121075759D01*
X182990302Y-121219301D01*
X182993802Y-121224300D01*
X183155700Y-121386198D01*
X183160208Y-121389355D01*
X183160211Y-121389357D01*
X183203758Y-121419849D01*
X183343251Y-121517523D01*
X183348233Y-121519846D01*
X183348238Y-121519849D01*
X183489492Y-121585716D01*
X183550757Y-121614284D01*
X183556065Y-121615706D01*
X183556067Y-121615707D01*
X183766598Y-121672119D01*
X183766600Y-121672119D01*
X183771913Y-121673543D01*
X184000000Y-121693498D01*
X184228087Y-121673543D01*
X184233400Y-121672119D01*
X184233402Y-121672119D01*
X184443933Y-121615707D01*
X184443935Y-121615706D01*
X184449243Y-121614284D01*
X184510508Y-121585716D01*
X184651762Y-121519849D01*
X184651767Y-121519846D01*
X184656749Y-121517523D01*
X184661375Y-121514284D01*
X184801729Y-121416007D01*
X184869003Y-121393319D01*
X184937864Y-121410604D01*
X184986448Y-121462374D01*
X185000000Y-121519220D01*
X185000000Y-134480780D01*
X184979998Y-134548901D01*
X184926342Y-134595394D01*
X184856068Y-134605498D01*
X184801729Y-134583993D01*
X184661258Y-134485634D01*
X184661256Y-134485633D01*
X184656749Y-134482477D01*
X184651767Y-134480154D01*
X184651762Y-134480151D01*
X184454225Y-134388039D01*
X184454224Y-134388039D01*
X184449243Y-134385716D01*
X184443935Y-134384294D01*
X184443933Y-134384293D01*
X184233402Y-134327881D01*
X184233400Y-134327881D01*
X184228087Y-134326457D01*
X184000000Y-134306502D01*
X183771913Y-134326457D01*
X183766600Y-134327881D01*
X183766598Y-134327881D01*
X183556067Y-134384293D01*
X183556065Y-134384294D01*
X183550757Y-134385716D01*
X183545776Y-134388039D01*
X183545775Y-134388039D01*
X183348238Y-134480151D01*
X183348233Y-134480154D01*
X183343251Y-134482477D01*
X183287538Y-134521488D01*
X183160211Y-134610643D01*
X183160208Y-134610645D01*
X183155700Y-134613802D01*
X182993802Y-134775700D01*
X182862477Y-134963251D01*
X182860154Y-134968233D01*
X182860151Y-134968238D01*
X182768039Y-135165775D01*
X182765716Y-135170757D01*
X182706457Y-135391913D01*
X182686502Y-135620000D01*
X182706457Y-135848087D01*
X182707881Y-135853400D01*
X182707881Y-135853402D01*
X182752911Y-136021453D01*
X182765716Y-136069243D01*
X182768039Y-136074224D01*
X182768039Y-136074225D01*
X182860151Y-136271762D01*
X182860154Y-136271767D01*
X182862477Y-136276749D01*
X182895556Y-136323990D01*
X182947721Y-136398489D01*
X182993802Y-136464300D01*
X183155700Y-136626198D01*
X183160208Y-136629355D01*
X183160211Y-136629357D01*
X183224648Y-136674476D01*
X183343251Y-136757523D01*
X183348233Y-136759846D01*
X183348238Y-136759849D01*
X183533772Y-136846364D01*
X183550757Y-136854284D01*
X183556065Y-136855706D01*
X183556067Y-136855707D01*
X183766598Y-136912119D01*
X183766600Y-136912119D01*
X183771913Y-136913543D01*
X184000000Y-136933498D01*
X184228087Y-136913543D01*
X184233400Y-136912119D01*
X184233402Y-136912119D01*
X184443933Y-136855707D01*
X184443935Y-136855706D01*
X184449243Y-136854284D01*
X184466228Y-136846364D01*
X184651762Y-136759849D01*
X184651767Y-136759846D01*
X184656749Y-136757523D01*
X184759043Y-136685896D01*
X184801729Y-136656007D01*
X184869003Y-136633319D01*
X184937864Y-136650604D01*
X184986448Y-136702374D01*
X185000000Y-136759220D01*
X185000000Y-139973107D01*
X184979998Y-140041228D01*
X184926342Y-140087721D01*
X184856068Y-140097825D01*
X184791488Y-140068331D01*
X184760752Y-140028342D01*
X184745588Y-139997250D01*
X184743660Y-139993298D01*
X184741205Y-139989659D01*
X184741202Y-139989653D01*
X184660935Y-139870653D01*
X184586585Y-139760424D01*
X184398629Y-139551678D01*
X184183450Y-139371121D01*
X183945236Y-139222269D01*
X183688625Y-139108018D01*
X183418610Y-139030593D01*
X183414260Y-139029982D01*
X183414257Y-139029981D01*
X183311310Y-139015513D01*
X183140448Y-138991500D01*
X182929854Y-138991500D01*
X182927668Y-138991653D01*
X182927664Y-138991653D01*
X182724173Y-139005882D01*
X182724168Y-139005883D01*
X182719788Y-139006189D01*
X182445030Y-139064591D01*
X182440901Y-139066094D01*
X182440897Y-139066095D01*
X182185219Y-139159154D01*
X182185215Y-139159156D01*
X182181074Y-139160663D01*
X181933058Y-139292536D01*
X181929499Y-139295122D01*
X181929497Y-139295123D01*
X181713505Y-139452050D01*
X181705808Y-139457642D01*
X181702644Y-139460698D01*
X181702641Y-139460700D01*
X181658177Y-139503639D01*
X181503748Y-139652769D01*
X181330812Y-139874118D01*
X181328616Y-139877922D01*
X181328611Y-139877929D01*
X181241771Y-140028342D01*
X181190364Y-140117381D01*
X181085138Y-140377824D01*
X181084073Y-140382097D01*
X181084072Y-140382099D01*
X181032175Y-140590248D01*
X181017183Y-140650376D01*
X181016724Y-140654744D01*
X181016723Y-140654749D01*
X180989220Y-140916431D01*
X180987822Y-140929733D01*
X180987975Y-140934121D01*
X180987975Y-140934127D01*
X180994607Y-141124020D01*
X180997625Y-141210458D01*
X180998387Y-141214781D01*
X180998388Y-141214788D01*
X181022164Y-141349624D01*
X181046402Y-141487087D01*
X181133203Y-141754235D01*
X181256340Y-142006702D01*
X181258795Y-142010341D01*
X181258798Y-142010347D01*
X181276712Y-142036905D01*
X181413415Y-142239576D01*
X181601371Y-142448322D01*
X181816550Y-142628879D01*
X181820282Y-142631211D01*
X182037824Y-142767146D01*
X182084994Y-142820207D01*
X182095989Y-142890347D01*
X182067318Y-142955297D01*
X182008084Y-142994436D01*
X181971054Y-143000000D01*
X153022120Y-143000000D01*
X152953999Y-142979998D01*
X152907506Y-142926342D01*
X152897402Y-142856068D01*
X152926896Y-142791488D01*
X152962967Y-142762749D01*
X153063050Y-142709534D01*
X153063056Y-142709530D01*
X153066942Y-142707464D01*
X153171896Y-142631211D01*
X153290629Y-142544947D01*
X153290632Y-142544944D01*
X153294192Y-142542358D01*
X153496252Y-142347231D01*
X153669188Y-142125882D01*
X153671384Y-142122078D01*
X153671389Y-142122071D01*
X153807435Y-141886431D01*
X153809636Y-141882619D01*
X153914862Y-141622176D01*
X153948544Y-141487087D01*
X153981753Y-141353893D01*
X153981754Y-141353888D01*
X153982817Y-141349624D01*
X153987449Y-141305558D01*
X154011719Y-141074636D01*
X154011719Y-141074633D01*
X154012178Y-141070267D01*
X154012025Y-141065873D01*
X154002529Y-140793939D01*
X154002528Y-140793933D01*
X154002375Y-140789542D01*
X153986033Y-140696858D01*
X153954360Y-140517236D01*
X153953598Y-140512913D01*
X153866797Y-140245765D01*
X153846489Y-140204126D01*
X153794641Y-140097825D01*
X153743660Y-139993298D01*
X153741205Y-139989659D01*
X153741202Y-139989653D01*
X153660935Y-139870653D01*
X153586585Y-139760424D01*
X153398629Y-139551678D01*
X153183450Y-139371121D01*
X152945236Y-139222269D01*
X152688625Y-139108018D01*
X152418610Y-139030593D01*
X152414260Y-139029982D01*
X152414257Y-139029981D01*
X152311310Y-139015513D01*
X152140448Y-138991500D01*
X151929854Y-138991500D01*
X151927668Y-138991653D01*
X151927664Y-138991653D01*
X151724173Y-139005882D01*
X151724168Y-139005883D01*
X151719788Y-139006189D01*
X151445030Y-139064591D01*
X151440901Y-139066094D01*
X151440897Y-139066095D01*
X151185219Y-139159154D01*
X151185215Y-139159156D01*
X151181074Y-139160663D01*
X150933058Y-139292536D01*
X150929499Y-139295122D01*
X150929497Y-139295123D01*
X150713505Y-139452050D01*
X150705808Y-139457642D01*
X150702644Y-139460698D01*
X150702641Y-139460700D01*
X150658177Y-139503639D01*
X150503748Y-139652769D01*
X150330812Y-139874118D01*
X150328616Y-139877922D01*
X150328611Y-139877929D01*
X150241771Y-140028342D01*
X150190364Y-140117381D01*
X150085138Y-140377824D01*
X150084073Y-140382097D01*
X150084072Y-140382099D01*
X150032175Y-140590248D01*
X150017183Y-140650376D01*
X150016724Y-140654744D01*
X150016723Y-140654749D01*
X149989220Y-140916431D01*
X149987822Y-140929733D01*
X149987975Y-140934121D01*
X149987975Y-140934127D01*
X149994607Y-141124020D01*
X149997625Y-141210458D01*
X149998387Y-141214781D01*
X149998388Y-141214788D01*
X150022164Y-141349624D01*
X150046402Y-141487087D01*
X150133203Y-141754235D01*
X150256340Y-142006702D01*
X150258795Y-142010341D01*
X150258798Y-142010347D01*
X150276712Y-142036905D01*
X150413415Y-142239576D01*
X150601371Y-142448322D01*
X150816550Y-142628879D01*
X150820282Y-142631211D01*
X151037824Y-142767146D01*
X151084994Y-142820207D01*
X151095989Y-142890347D01*
X151067318Y-142955297D01*
X151008084Y-142994436D01*
X150971054Y-143000000D01*
X137052190Y-143000000D01*
X136984069Y-142979998D01*
X136963095Y-142963095D01*
X136036905Y-142036905D01*
X136002879Y-141974593D01*
X136000000Y-141947810D01*
X136000000Y-139955151D01*
X141543296Y-139955151D01*
X141543520Y-139959817D01*
X141543520Y-139959822D01*
X141544953Y-139989653D01*
X141555480Y-140208798D01*
X141605021Y-140457857D01*
X141606600Y-140462255D01*
X141606602Y-140462262D01*
X141674142Y-140650376D01*
X141690831Y-140696858D01*
X141811025Y-140920551D01*
X141813820Y-140924294D01*
X141813822Y-140924297D01*
X141960171Y-141120282D01*
X141960176Y-141120288D01*
X141962963Y-141124020D01*
X141966272Y-141127300D01*
X141966277Y-141127306D01*
X142064859Y-141225031D01*
X142143307Y-141302797D01*
X142147069Y-141305555D01*
X142147072Y-141305558D01*
X142201207Y-141345251D01*
X142348094Y-141452953D01*
X142352229Y-141455129D01*
X142352233Y-141455131D01*
X142404755Y-141482764D01*
X142572827Y-141571191D01*
X142812568Y-141654912D01*
X143062050Y-141702278D01*
X143182532Y-141707011D01*
X143311125Y-141712064D01*
X143311130Y-141712064D01*
X143315793Y-141712247D01*
X143414774Y-141701407D01*
X143563569Y-141685112D01*
X143563575Y-141685111D01*
X143568222Y-141684602D01*
X143677680Y-141655784D01*
X143789822Y-141626259D01*
X143813793Y-141619948D01*
X143932353Y-141569011D01*
X144042807Y-141521557D01*
X144042810Y-141521555D01*
X144047110Y-141519708D01*
X144051090Y-141517245D01*
X144051094Y-141517243D01*
X144259064Y-141388547D01*
X144259066Y-141388545D01*
X144263047Y-141386082D01*
X144361428Y-141302797D01*
X144453289Y-141225031D01*
X144453291Y-141225029D01*
X144456862Y-141222006D01*
X144624295Y-141031084D01*
X144761669Y-140817512D01*
X144865967Y-140585980D01*
X144934896Y-140341575D01*
X144952382Y-140204126D01*
X144966545Y-140092798D01*
X144966545Y-140092792D01*
X144966943Y-140089667D01*
X144969291Y-140000000D01*
X144960220Y-139877929D01*
X144950818Y-139751411D01*
X144950817Y-139751407D01*
X144950472Y-139746759D01*
X144894428Y-139499082D01*
X144850796Y-139386883D01*
X144804084Y-139266762D01*
X144804083Y-139266760D01*
X144802391Y-139262409D01*
X144779449Y-139222269D01*
X144678702Y-139045997D01*
X144678700Y-139045995D01*
X144676383Y-139041940D01*
X144519171Y-138842517D01*
X144334209Y-138668523D01*
X144173177Y-138556811D01*
X144129393Y-138526437D01*
X144129390Y-138526435D01*
X144125561Y-138523779D01*
X144121384Y-138521719D01*
X144121377Y-138521715D01*
X143901996Y-138413528D01*
X143901992Y-138413527D01*
X143897810Y-138411464D01*
X143655960Y-138334047D01*
X143651355Y-138333297D01*
X143409935Y-138293980D01*
X143409934Y-138293980D01*
X143405323Y-138293229D01*
X143278365Y-138291567D01*
X143156083Y-138289966D01*
X143156080Y-138289966D01*
X143151406Y-138289905D01*
X142899787Y-138324149D01*
X142655993Y-138395208D01*
X142425380Y-138501522D01*
X142421471Y-138504085D01*
X142216928Y-138638189D01*
X142216923Y-138638193D01*
X142213015Y-138640755D01*
X142175745Y-138674020D01*
X142087885Y-138752438D01*
X142023562Y-138809848D01*
X141861183Y-139005087D01*
X141729447Y-139222182D01*
X141727638Y-139226496D01*
X141727637Y-139226498D01*
X141647857Y-139416753D01*
X141631246Y-139456365D01*
X141568738Y-139702490D01*
X141543296Y-139955151D01*
X136000000Y-139955151D01*
X136000000Y-138021695D01*
X174887251Y-138021695D01*
X174887548Y-138026848D01*
X174887548Y-138026851D01*
X174893011Y-138121590D01*
X174900110Y-138244715D01*
X174901247Y-138249761D01*
X174901248Y-138249767D01*
X174918011Y-138324149D01*
X174949222Y-138462639D01*
X174987461Y-138556811D01*
X175022813Y-138643872D01*
X175033266Y-138669616D01*
X175035965Y-138674020D01*
X175139220Y-138842517D01*
X175149987Y-138860088D01*
X175296250Y-139028938D01*
X175468126Y-139171632D01*
X175661000Y-139284338D01*
X175869692Y-139364030D01*
X175874760Y-139365061D01*
X175874763Y-139365062D01*
X175982017Y-139386883D01*
X176088597Y-139408567D01*
X176093772Y-139408757D01*
X176093774Y-139408757D01*
X176306673Y-139416564D01*
X176306677Y-139416564D01*
X176311837Y-139416753D01*
X176316957Y-139416097D01*
X176316959Y-139416097D01*
X176528288Y-139389025D01*
X176528289Y-139389025D01*
X176533416Y-139388368D01*
X176598676Y-139368789D01*
X176742429Y-139325661D01*
X176742434Y-139325659D01*
X176747384Y-139324174D01*
X176947994Y-139225896D01*
X177129860Y-139096173D01*
X177288096Y-138938489D01*
X177347594Y-138855689D01*
X177415435Y-138761277D01*
X177418453Y-138757077D01*
X177517430Y-138556811D01*
X177582370Y-138343069D01*
X177611529Y-138121590D01*
X177613156Y-138055000D01*
X177594852Y-137832361D01*
X177540431Y-137615702D01*
X177451354Y-137410840D01*
X177330014Y-137223277D01*
X177179670Y-137058051D01*
X177175619Y-137054852D01*
X177175615Y-137054848D01*
X177008414Y-136922800D01*
X177008410Y-136922798D01*
X177004359Y-136919598D01*
X176963053Y-136896796D01*
X176913084Y-136846364D01*
X176898312Y-136776921D01*
X176923428Y-136710516D01*
X176950780Y-136683909D01*
X176997472Y-136650604D01*
X177129860Y-136556173D01*
X177288096Y-136398489D01*
X177347594Y-136315689D01*
X177415435Y-136221277D01*
X177418453Y-136217077D01*
X177489055Y-136074225D01*
X177515136Y-136021453D01*
X177515137Y-136021451D01*
X177517430Y-136016811D01*
X177567078Y-135853402D01*
X177580865Y-135808023D01*
X177580865Y-135808021D01*
X177582370Y-135803069D01*
X177611529Y-135581590D01*
X177613156Y-135515000D01*
X177594852Y-135292361D01*
X177540431Y-135075702D01*
X177451354Y-134870840D01*
X177411906Y-134809862D01*
X177332822Y-134687617D01*
X177332820Y-134687614D01*
X177330014Y-134683277D01*
X177326532Y-134679450D01*
X177182798Y-134521488D01*
X177151746Y-134457642D01*
X177160141Y-134387143D01*
X177205317Y-134332375D01*
X177231761Y-134318706D01*
X177338297Y-134278767D01*
X177346705Y-134275615D01*
X177463261Y-134188261D01*
X177550615Y-134071705D01*
X177601745Y-133935316D01*
X177608500Y-133873134D01*
X177608500Y-132076866D01*
X177601745Y-132014684D01*
X177550615Y-131878295D01*
X177463261Y-131761739D01*
X177346705Y-131674385D01*
X177210316Y-131623255D01*
X177148134Y-131616500D01*
X175351866Y-131616500D01*
X175289684Y-131623255D01*
X175153295Y-131674385D01*
X175036739Y-131761739D01*
X174949385Y-131878295D01*
X174898255Y-132014684D01*
X174891500Y-132076866D01*
X174891500Y-133873134D01*
X174898255Y-133935316D01*
X174949385Y-134071705D01*
X175036739Y-134188261D01*
X175153295Y-134275615D01*
X175161704Y-134278767D01*
X175161705Y-134278768D01*
X175270451Y-134319535D01*
X175327216Y-134362176D01*
X175351916Y-134428738D01*
X175336709Y-134498087D01*
X175317316Y-134524568D01*
X175190629Y-134657138D01*
X175064743Y-134841680D01*
X174970688Y-135044305D01*
X174910989Y-135259570D01*
X174887251Y-135481695D01*
X174887548Y-135486848D01*
X174887548Y-135486851D01*
X174893011Y-135581590D01*
X174900110Y-135704715D01*
X174901247Y-135709761D01*
X174901248Y-135709767D01*
X174921119Y-135797939D01*
X174949222Y-135922639D01*
X175033266Y-136129616D01*
X175149987Y-136320088D01*
X175296250Y-136488938D01*
X175468126Y-136631632D01*
X175500593Y-136650604D01*
X175541445Y-136674476D01*
X175590169Y-136726114D01*
X175603240Y-136795897D01*
X175576509Y-136861669D01*
X175536055Y-136895027D01*
X175523607Y-136901507D01*
X175519474Y-136904610D01*
X175519471Y-136904612D01*
X175349100Y-137032530D01*
X175344965Y-137035635D01*
X175190629Y-137197138D01*
X175064743Y-137381680D01*
X174970688Y-137584305D01*
X174910989Y-137799570D01*
X174887251Y-138021695D01*
X136000000Y-138021695D01*
X136000000Y-126978393D01*
X157936803Y-126978393D01*
X157952960Y-127258601D01*
X157953785Y-127262806D01*
X157953786Y-127262814D01*
X157964711Y-127318497D01*
X158006996Y-127534024D01*
X158008383Y-127538074D01*
X158008384Y-127538079D01*
X158096522Y-127795509D01*
X158097911Y-127799565D01*
X158224022Y-128050310D01*
X158226448Y-128053839D01*
X158226451Y-128053845D01*
X158335012Y-128211801D01*
X158382997Y-128281620D01*
X158571894Y-128489215D01*
X158575183Y-128491965D01*
X158783925Y-128666501D01*
X158783930Y-128666505D01*
X158787217Y-128669253D01*
X158842424Y-128703884D01*
X159021341Y-128816119D01*
X159021345Y-128816121D01*
X159024981Y-128818402D01*
X159280788Y-128933903D01*
X159284907Y-128935123D01*
X159545790Y-129012401D01*
X159545795Y-129012402D01*
X159549903Y-129013619D01*
X159554137Y-129014267D01*
X159554142Y-129014268D01*
X159777838Y-129048498D01*
X159827347Y-129056074D01*
X159970292Y-129058319D01*
X160103694Y-129060415D01*
X160103700Y-129060415D01*
X160107985Y-129060482D01*
X160386626Y-129026763D01*
X160658112Y-128955540D01*
X160662072Y-128953900D01*
X160662077Y-128953898D01*
X160808380Y-128893297D01*
X160917420Y-128848131D01*
X160968296Y-128818402D01*
X161156054Y-128708685D01*
X161156055Y-128708685D01*
X161159752Y-128706524D01*
X161265068Y-128623946D01*
X161377252Y-128535982D01*
X161380624Y-128533338D01*
X161456673Y-128454862D01*
X161484656Y-128425986D01*
X161575948Y-128331779D01*
X161578481Y-128328331D01*
X161578485Y-128328326D01*
X161739572Y-128109032D01*
X161742110Y-128105577D01*
X161876036Y-127858916D01*
X161975247Y-127596362D01*
X162037907Y-127322773D01*
X162062857Y-127043211D01*
X162063310Y-127000000D01*
X162044220Y-126719977D01*
X162038923Y-126694396D01*
X161988172Y-126449332D01*
X161987303Y-126445135D01*
X161893612Y-126180561D01*
X161883401Y-126160776D01*
X161766847Y-125934957D01*
X161766847Y-125934956D01*
X161764882Y-125931150D01*
X161754595Y-125916512D01*
X161605956Y-125705022D01*
X161603493Y-125701517D01*
X161555248Y-125649599D01*
X169941500Y-125649599D01*
X169941501Y-128350400D01*
X169952474Y-128456167D01*
X169954658Y-128462713D01*
X170005730Y-128615792D01*
X170008450Y-128623946D01*
X170101521Y-128774349D01*
X170226697Y-128899306D01*
X170377261Y-128992115D01*
X170438422Y-129012401D01*
X170538610Y-129045632D01*
X170538612Y-129045632D01*
X170545138Y-129047797D01*
X170551974Y-129048497D01*
X170551977Y-129048498D01*
X170595030Y-129052909D01*
X170649599Y-129058500D01*
X171989586Y-129058500D01*
X173350400Y-129058499D01*
X173456167Y-129047526D01*
X173521665Y-129025674D01*
X173617002Y-128993867D01*
X173617004Y-128993866D01*
X173623946Y-128991550D01*
X173774349Y-128898479D01*
X173899306Y-128773303D01*
X173992115Y-128622739D01*
X174047797Y-128454862D01*
X174058500Y-128350401D01*
X174058499Y-125649600D01*
X174047526Y-125543833D01*
X174025738Y-125478527D01*
X173993867Y-125382998D01*
X173993866Y-125382996D01*
X173991550Y-125376054D01*
X173898479Y-125225651D01*
X173773303Y-125100694D01*
X173622739Y-125007885D01*
X173462264Y-124954658D01*
X173461390Y-124954368D01*
X173461388Y-124954368D01*
X173454862Y-124952203D01*
X173448026Y-124951503D01*
X173448023Y-124951502D01*
X173404970Y-124947091D01*
X173350401Y-124941500D01*
X172010414Y-124941500D01*
X170649600Y-124941501D01*
X170543833Y-124952474D01*
X170537286Y-124954658D01*
X170537287Y-124954658D01*
X170382998Y-125006133D01*
X170382996Y-125006134D01*
X170376054Y-125008450D01*
X170225651Y-125101521D01*
X170100694Y-125226697D01*
X170007885Y-125377261D01*
X169952203Y-125545138D01*
X169941500Y-125649599D01*
X161555248Y-125649599D01*
X161464532Y-125551977D01*
X161415354Y-125499055D01*
X161415351Y-125499052D01*
X161412433Y-125495912D01*
X161195237Y-125318139D01*
X160955923Y-125171487D01*
X160933348Y-125161577D01*
X160702853Y-125060397D01*
X160698921Y-125058671D01*
X160679519Y-125053144D01*
X160433114Y-124982954D01*
X160433115Y-124982954D01*
X160428986Y-124981778D01*
X160216255Y-124951502D01*
X160155365Y-124942836D01*
X160155363Y-124942836D01*
X160151113Y-124942231D01*
X160146824Y-124942209D01*
X160146817Y-124942208D01*
X159874730Y-124940783D01*
X159874723Y-124940783D01*
X159870444Y-124940761D01*
X159866199Y-124941320D01*
X159866197Y-124941320D01*
X159802813Y-124949665D01*
X159592172Y-124977397D01*
X159321446Y-125051459D01*
X159063277Y-125161577D01*
X158917721Y-125248691D01*
X158826123Y-125303511D01*
X158826119Y-125303514D01*
X158822441Y-125305715D01*
X158603395Y-125481204D01*
X158600451Y-125484306D01*
X158600447Y-125484310D01*
X158413142Y-125681688D01*
X158410192Y-125684797D01*
X158246408Y-125912727D01*
X158115073Y-126160776D01*
X158113601Y-126164799D01*
X158113599Y-126164803D01*
X158106354Y-126184602D01*
X158018616Y-126424355D01*
X157958825Y-126698585D01*
X157936803Y-126978393D01*
X136000000Y-126978393D01*
X136000000Y-121682263D01*
X164435064Y-121682263D01*
X164471404Y-121919744D01*
X164489693Y-121975700D01*
X164544434Y-122143183D01*
X164544437Y-122143189D01*
X164546042Y-122148101D01*
X164548429Y-122152687D01*
X164548431Y-122152691D01*
X164560605Y-122176077D01*
X164656975Y-122361200D01*
X164801223Y-122553320D01*
X164974912Y-122719301D01*
X165173378Y-122854686D01*
X165178061Y-122856860D01*
X165178065Y-122856862D01*
X165386595Y-122953658D01*
X165386599Y-122953659D01*
X165391290Y-122955837D01*
X165622798Y-123020040D01*
X165627935Y-123020589D01*
X165815593Y-123040644D01*
X165815601Y-123040644D01*
X165818928Y-123041000D01*
X166053402Y-123041000D01*
X166055975Y-123040788D01*
X166055986Y-123040788D01*
X166156946Y-123032487D01*
X166231937Y-123026322D01*
X166464944Y-122967794D01*
X166593771Y-122911779D01*
X166680526Y-122874057D01*
X166680529Y-122874055D01*
X166685263Y-122871997D01*
X166765638Y-122820000D01*
X172386502Y-122820000D01*
X172406457Y-123048087D01*
X172465716Y-123269243D01*
X172468039Y-123274224D01*
X172468039Y-123274225D01*
X172560151Y-123471762D01*
X172560154Y-123471767D01*
X172562477Y-123476749D01*
X172693802Y-123664300D01*
X172855700Y-123826198D01*
X172860208Y-123829355D01*
X172860211Y-123829357D01*
X172938389Y-123884098D01*
X173043251Y-123957523D01*
X173048233Y-123959846D01*
X173048238Y-123959849D01*
X173245775Y-124051961D01*
X173250757Y-124054284D01*
X173256065Y-124055706D01*
X173256067Y-124055707D01*
X173466598Y-124112119D01*
X173466600Y-124112119D01*
X173471913Y-124113543D01*
X173700000Y-124133498D01*
X173928087Y-124113543D01*
X173933400Y-124112119D01*
X173933402Y-124112119D01*
X174143933Y-124055707D01*
X174143935Y-124055706D01*
X174149243Y-124054284D01*
X174154225Y-124051961D01*
X174351762Y-123959849D01*
X174351767Y-123959846D01*
X174356749Y-123957523D01*
X174461611Y-123884098D01*
X174539789Y-123829357D01*
X174539792Y-123829355D01*
X174544300Y-123826198D01*
X174706198Y-123664300D01*
X174837523Y-123476749D01*
X174839846Y-123471767D01*
X174839849Y-123471762D01*
X174931961Y-123274225D01*
X174931961Y-123274224D01*
X174934284Y-123269243D01*
X174993543Y-123048087D01*
X175013498Y-122820000D01*
X174993543Y-122591913D01*
X174982094Y-122549185D01*
X174935707Y-122376067D01*
X174935706Y-122376065D01*
X174934284Y-122370757D01*
X174847886Y-122185474D01*
X174839849Y-122168238D01*
X174839846Y-122168233D01*
X174837523Y-122163251D01*
X174706198Y-121975700D01*
X174544300Y-121813802D01*
X174539792Y-121810645D01*
X174539789Y-121810643D01*
X174400053Y-121712799D01*
X174356749Y-121682477D01*
X174351767Y-121680154D01*
X174351762Y-121680151D01*
X174154225Y-121588039D01*
X174154224Y-121588039D01*
X174149243Y-121585716D01*
X174143935Y-121584294D01*
X174143933Y-121584293D01*
X173933402Y-121527881D01*
X173933400Y-121527881D01*
X173928087Y-121526457D01*
X173700000Y-121506502D01*
X173471913Y-121526457D01*
X173466600Y-121527881D01*
X173466598Y-121527881D01*
X173256067Y-121584293D01*
X173256065Y-121584294D01*
X173250757Y-121585716D01*
X173245776Y-121588039D01*
X173245775Y-121588039D01*
X173048238Y-121680151D01*
X173048233Y-121680154D01*
X173043251Y-121682477D01*
X172999947Y-121712799D01*
X172860211Y-121810643D01*
X172860208Y-121810645D01*
X172855700Y-121813802D01*
X172693802Y-121975700D01*
X172562477Y-122163251D01*
X172560154Y-122168233D01*
X172560151Y-122168238D01*
X172552114Y-122185474D01*
X172465716Y-122370757D01*
X172464294Y-122376065D01*
X172464293Y-122376067D01*
X172417906Y-122549185D01*
X172406457Y-122591913D01*
X172386502Y-122820000D01*
X166765638Y-122820000D01*
X166886977Y-122741502D01*
X167064670Y-122579814D01*
X167125347Y-122502983D01*
X167210367Y-122395330D01*
X167210370Y-122395325D01*
X167213568Y-122391276D01*
X167227646Y-122365775D01*
X167327177Y-122185474D01*
X167327179Y-122185470D01*
X167329674Y-122180950D01*
X167402358Y-121975700D01*
X167408144Y-121959360D01*
X167408145Y-121959356D01*
X167409870Y-121954485D01*
X167415183Y-121924659D01*
X167451095Y-121723052D01*
X167451096Y-121723046D01*
X167452001Y-121717963D01*
X167454166Y-121540788D01*
X167454873Y-121482907D01*
X167454873Y-121482905D01*
X167454936Y-121477737D01*
X167418596Y-121240256D01*
X167358664Y-121056892D01*
X167345566Y-121016817D01*
X167345563Y-121016811D01*
X167343958Y-121011899D01*
X167246109Y-120823933D01*
X167235416Y-120803393D01*
X167233025Y-120798800D01*
X167119877Y-120648101D01*
X167091882Y-120610815D01*
X167091880Y-120610812D01*
X167088777Y-120606680D01*
X166915088Y-120440699D01*
X166878097Y-120415465D01*
X166833096Y-120360556D01*
X166824925Y-120290032D01*
X166856179Y-120226284D01*
X166880660Y-120205589D01*
X166882635Y-120204311D01*
X166886977Y-120201502D01*
X167064670Y-120039814D01*
X167137811Y-119947201D01*
X167210367Y-119855330D01*
X167210370Y-119855325D01*
X167213568Y-119851276D01*
X167227646Y-119825775D01*
X167327177Y-119645474D01*
X167327179Y-119645470D01*
X167329674Y-119640950D01*
X167366946Y-119535700D01*
X167408144Y-119419360D01*
X167408145Y-119419356D01*
X167409870Y-119414485D01*
X167415183Y-119384659D01*
X167451095Y-119183052D01*
X167451096Y-119183046D01*
X167452001Y-119177963D01*
X167453760Y-119034022D01*
X167454873Y-118942907D01*
X167454873Y-118942905D01*
X167454936Y-118937737D01*
X167418596Y-118700256D01*
X167358664Y-118516892D01*
X167345566Y-118476817D01*
X167345563Y-118476811D01*
X167343958Y-118471899D01*
X167340003Y-118464300D01*
X167235416Y-118263393D01*
X167233025Y-118258800D01*
X167116585Y-118103717D01*
X167091680Y-118037235D01*
X167106672Y-117967839D01*
X167156802Y-117917565D01*
X167173115Y-117910085D01*
X167183293Y-117906269D01*
X167183296Y-117906267D01*
X167191705Y-117903115D01*
X167308261Y-117815761D01*
X167365041Y-117740000D01*
X172386502Y-117740000D01*
X172406457Y-117968087D01*
X172407881Y-117973400D01*
X172407881Y-117973402D01*
X172464293Y-118183931D01*
X172465716Y-118189243D01*
X172468039Y-118194224D01*
X172468039Y-118194225D01*
X172560151Y-118391762D01*
X172560154Y-118391767D01*
X172562477Y-118396749D01*
X172693802Y-118584300D01*
X172855700Y-118746198D01*
X172860208Y-118749355D01*
X172860211Y-118749357D01*
X172918301Y-118790032D01*
X173043251Y-118877523D01*
X173048233Y-118879846D01*
X173048238Y-118879849D01*
X173183468Y-118942907D01*
X173250757Y-118974284D01*
X173256065Y-118975706D01*
X173256067Y-118975707D01*
X173466598Y-119032119D01*
X173466600Y-119032119D01*
X173471913Y-119033543D01*
X173700000Y-119053498D01*
X173928087Y-119033543D01*
X173933400Y-119032119D01*
X173933402Y-119032119D01*
X174143933Y-118975707D01*
X174143935Y-118975706D01*
X174149243Y-118974284D01*
X174216532Y-118942907D01*
X174351762Y-118879849D01*
X174351767Y-118879846D01*
X174356749Y-118877523D01*
X174481699Y-118790032D01*
X174539789Y-118749357D01*
X174539792Y-118749355D01*
X174544300Y-118746198D01*
X174706198Y-118584300D01*
X174837523Y-118396749D01*
X174839846Y-118391767D01*
X174839849Y-118391762D01*
X174931961Y-118194225D01*
X174931961Y-118194224D01*
X174934284Y-118189243D01*
X174935708Y-118183931D01*
X174992119Y-117973402D01*
X174992119Y-117973400D01*
X174993543Y-117968087D01*
X175013498Y-117740000D01*
X174993543Y-117511913D01*
X174975053Y-117442907D01*
X174935707Y-117296067D01*
X174935706Y-117296065D01*
X174934284Y-117290757D01*
X174894467Y-117205369D01*
X174839849Y-117088238D01*
X174839846Y-117088233D01*
X174837523Y-117083251D01*
X174736552Y-116939050D01*
X174709357Y-116900211D01*
X174709355Y-116900208D01*
X174706198Y-116895700D01*
X174544300Y-116733802D01*
X174539789Y-116730643D01*
X174535576Y-116727108D01*
X174536527Y-116725974D01*
X174496529Y-116675929D01*
X174489224Y-116605310D01*
X174521258Y-116541951D01*
X174582462Y-116505970D01*
X174599517Y-116502918D01*
X174610316Y-116501745D01*
X174746705Y-116450615D01*
X174863261Y-116363261D01*
X174950615Y-116246705D01*
X175001745Y-116110316D01*
X175008500Y-116048134D01*
X175008500Y-114351866D01*
X175001745Y-114289684D01*
X174950615Y-114153295D01*
X174863261Y-114036739D01*
X174746705Y-113949385D01*
X174610316Y-113898255D01*
X174548134Y-113891500D01*
X172851866Y-113891500D01*
X172789684Y-113898255D01*
X172653295Y-113949385D01*
X172536739Y-114036739D01*
X172449385Y-114153295D01*
X172398255Y-114289684D01*
X172391500Y-114351866D01*
X172391500Y-116048134D01*
X172398255Y-116110316D01*
X172449385Y-116246705D01*
X172536739Y-116363261D01*
X172653295Y-116450615D01*
X172789684Y-116501745D01*
X172800474Y-116502917D01*
X172802606Y-116503803D01*
X172805222Y-116504425D01*
X172805121Y-116504848D01*
X172866035Y-116530155D01*
X172906463Y-116588517D01*
X172908922Y-116659471D01*
X172872629Y-116720490D01*
X172863969Y-116727489D01*
X172860207Y-116730646D01*
X172855700Y-116733802D01*
X172693802Y-116895700D01*
X172690645Y-116900208D01*
X172690643Y-116900211D01*
X172663448Y-116939050D01*
X172562477Y-117083251D01*
X172560154Y-117088233D01*
X172560151Y-117088238D01*
X172505533Y-117205369D01*
X172465716Y-117290757D01*
X172464294Y-117296065D01*
X172464293Y-117296067D01*
X172424947Y-117442907D01*
X172406457Y-117511913D01*
X172386502Y-117740000D01*
X167365041Y-117740000D01*
X167395615Y-117699205D01*
X167446745Y-117562816D01*
X167453500Y-117500634D01*
X167453500Y-115499366D01*
X167446745Y-115437184D01*
X167395615Y-115300795D01*
X167308261Y-115184239D01*
X167191705Y-115096885D01*
X167055316Y-115045755D01*
X166993134Y-115039000D01*
X164896866Y-115039000D01*
X164834684Y-115045755D01*
X164698295Y-115096885D01*
X164581739Y-115184239D01*
X164494385Y-115300795D01*
X164443255Y-115437184D01*
X164436500Y-115499366D01*
X164436500Y-117500634D01*
X164443255Y-117562816D01*
X164494385Y-117699205D01*
X164581739Y-117815761D01*
X164698295Y-117903115D01*
X164718189Y-117910573D01*
X164774953Y-117953213D01*
X164799654Y-118019774D01*
X164784447Y-118089123D01*
X164772842Y-118106647D01*
X164679633Y-118224670D01*
X164679630Y-118224675D01*
X164676432Y-118228724D01*
X164673939Y-118233240D01*
X164673937Y-118233243D01*
X164562823Y-118434526D01*
X164560326Y-118439050D01*
X164558602Y-118443919D01*
X164558600Y-118443923D01*
X164510487Y-118579789D01*
X164480130Y-118665515D01*
X164479223Y-118670608D01*
X164479222Y-118670611D01*
X164442366Y-118877523D01*
X164437999Y-118902037D01*
X164437502Y-118942722D01*
X164436149Y-119053498D01*
X164435064Y-119142263D01*
X164471404Y-119379744D01*
X164489693Y-119435700D01*
X164544434Y-119603183D01*
X164544437Y-119603189D01*
X164546042Y-119608101D01*
X164548429Y-119612687D01*
X164548431Y-119612691D01*
X164654584Y-119816607D01*
X164656975Y-119821200D01*
X164801223Y-120013320D01*
X164974912Y-120179301D01*
X165011903Y-120204535D01*
X165056904Y-120259444D01*
X165065075Y-120329968D01*
X165033821Y-120393716D01*
X165009340Y-120414411D01*
X165009000Y-120414631D01*
X165003023Y-120418498D01*
X164825330Y-120580186D01*
X164803295Y-120608087D01*
X164679633Y-120764670D01*
X164679630Y-120764675D01*
X164676432Y-120768724D01*
X164673939Y-120773240D01*
X164673937Y-120773243D01*
X164562823Y-120974526D01*
X164560326Y-120979050D01*
X164558602Y-120983919D01*
X164558600Y-120983923D01*
X164510487Y-121119789D01*
X164480130Y-121205515D01*
X164479223Y-121210608D01*
X164479222Y-121210611D01*
X164442366Y-121417523D01*
X164437999Y-121442037D01*
X164437502Y-121482722D01*
X164435171Y-121673543D01*
X164435064Y-121682263D01*
X136000000Y-121682263D01*
X136000000Y-120182263D01*
X150490064Y-120182263D01*
X150526404Y-120419744D01*
X150553488Y-120502607D01*
X150599434Y-120643183D01*
X150599437Y-120643189D01*
X150601042Y-120648101D01*
X150603429Y-120652687D01*
X150603431Y-120652691D01*
X150647968Y-120738245D01*
X150711975Y-120861200D01*
X150715085Y-120865342D01*
X150847166Y-121041257D01*
X150856223Y-121053320D01*
X151029912Y-121219301D01*
X151228378Y-121354686D01*
X151233061Y-121356860D01*
X151233065Y-121356862D01*
X151441595Y-121453658D01*
X151441599Y-121453659D01*
X151446290Y-121455837D01*
X151677798Y-121520040D01*
X151682935Y-121520589D01*
X151870593Y-121540644D01*
X151870601Y-121540644D01*
X151873928Y-121541000D01*
X152108402Y-121541000D01*
X152110975Y-121540788D01*
X152110986Y-121540788D01*
X152211946Y-121532487D01*
X152286937Y-121526322D01*
X152519944Y-121467794D01*
X152707603Y-121386198D01*
X152735526Y-121374057D01*
X152735529Y-121374055D01*
X152740263Y-121371997D01*
X152941977Y-121241502D01*
X153119670Y-121079814D01*
X153195400Y-120983923D01*
X153265367Y-120895330D01*
X153265370Y-120895325D01*
X153268568Y-120891276D01*
X153282885Y-120865342D01*
X153382177Y-120685474D01*
X153382179Y-120685470D01*
X153384674Y-120680950D01*
X153409511Y-120610815D01*
X153463144Y-120459360D01*
X153463145Y-120459356D01*
X153464870Y-120454485D01*
X153470661Y-120421974D01*
X153506095Y-120223052D01*
X153506096Y-120223046D01*
X153507001Y-120217963D01*
X153509936Y-119977737D01*
X153473596Y-119740256D01*
X153431902Y-119612691D01*
X153400566Y-119516817D01*
X153400563Y-119516811D01*
X153398958Y-119511899D01*
X153361640Y-119440211D01*
X153290416Y-119303393D01*
X153288025Y-119298800D01*
X153193421Y-119172799D01*
X153146882Y-119110815D01*
X153146880Y-119110812D01*
X153143777Y-119106680D01*
X152970088Y-118940699D01*
X152933097Y-118915465D01*
X152888096Y-118860556D01*
X152879925Y-118790032D01*
X152911179Y-118726284D01*
X152935660Y-118705589D01*
X152937635Y-118704311D01*
X152941977Y-118701502D01*
X153119670Y-118539814D01*
X153195400Y-118443923D01*
X153265367Y-118355330D01*
X153265370Y-118355325D01*
X153268568Y-118351276D01*
X153282885Y-118325342D01*
X153382177Y-118145474D01*
X153382179Y-118145470D01*
X153384674Y-118140950D01*
X153396822Y-118106647D01*
X153463144Y-117919360D01*
X153463145Y-117919356D01*
X153464870Y-117914485D01*
X153465778Y-117909389D01*
X153506095Y-117683052D01*
X153506096Y-117683046D01*
X153507001Y-117677963D01*
X153509936Y-117437737D01*
X153473596Y-117200256D01*
X153433880Y-117078743D01*
X153400566Y-116976817D01*
X153400563Y-116976811D01*
X153398958Y-116971899D01*
X153394457Y-116963251D01*
X153290416Y-116763393D01*
X153288025Y-116758800D01*
X153171585Y-116603717D01*
X153146680Y-116537235D01*
X153161672Y-116467839D01*
X153211802Y-116417565D01*
X153228115Y-116410085D01*
X153238293Y-116406269D01*
X153238296Y-116406267D01*
X153246705Y-116403115D01*
X153363261Y-116315761D01*
X153450615Y-116199205D01*
X153501745Y-116062816D01*
X153508500Y-116000634D01*
X153508500Y-113999366D01*
X153501745Y-113937184D01*
X153450615Y-113800795D01*
X153363261Y-113684239D01*
X153246705Y-113596885D01*
X153110316Y-113545755D01*
X153048134Y-113539000D01*
X150951866Y-113539000D01*
X150889684Y-113545755D01*
X150753295Y-113596885D01*
X150636739Y-113684239D01*
X150549385Y-113800795D01*
X150498255Y-113937184D01*
X150491500Y-113999366D01*
X150491500Y-116000634D01*
X150498255Y-116062816D01*
X150549385Y-116199205D01*
X150636739Y-116315761D01*
X150753295Y-116403115D01*
X150773189Y-116410573D01*
X150829953Y-116453213D01*
X150854654Y-116519774D01*
X150839447Y-116589123D01*
X150827842Y-116606647D01*
X150734633Y-116724670D01*
X150734630Y-116724675D01*
X150731432Y-116728724D01*
X150728939Y-116733240D01*
X150728937Y-116733243D01*
X150639256Y-116895700D01*
X150615326Y-116939050D01*
X150613602Y-116943919D01*
X150613600Y-116943923D01*
X150564261Y-117083251D01*
X150535130Y-117165515D01*
X150534223Y-117170608D01*
X150534222Y-117170611D01*
X150528893Y-117200531D01*
X150492999Y-117402037D01*
X150492936Y-117407201D01*
X150491722Y-117506598D01*
X150490064Y-117642263D01*
X150526404Y-117879744D01*
X150553488Y-117962607D01*
X150599434Y-118103183D01*
X150599437Y-118103189D01*
X150601042Y-118108101D01*
X150603429Y-118112687D01*
X150603431Y-118112691D01*
X150661724Y-118224670D01*
X150711975Y-118321200D01*
X150715085Y-118325342D01*
X150828816Y-118476817D01*
X150856223Y-118513320D01*
X151029912Y-118679301D01*
X151066903Y-118704535D01*
X151111904Y-118759444D01*
X151120075Y-118829968D01*
X151088821Y-118893716D01*
X151064340Y-118914411D01*
X151063051Y-118915245D01*
X151058023Y-118918498D01*
X150880330Y-119080186D01*
X150828642Y-119145634D01*
X150734633Y-119264670D01*
X150734630Y-119264675D01*
X150731432Y-119268724D01*
X150728939Y-119273240D01*
X150728937Y-119273243D01*
X150639256Y-119435700D01*
X150615326Y-119479050D01*
X150613602Y-119483919D01*
X150613600Y-119483923D01*
X150536856Y-119700640D01*
X150535130Y-119705515D01*
X150534223Y-119710608D01*
X150534222Y-119710611D01*
X150496612Y-119921755D01*
X150492999Y-119942037D01*
X150492936Y-119947201D01*
X150491722Y-120046598D01*
X150490064Y-120182263D01*
X136000000Y-120182263D01*
X136000000Y-109850000D01*
X150686502Y-109850000D01*
X150706457Y-110078087D01*
X150707881Y-110083400D01*
X150707881Y-110083402D01*
X150727923Y-110158197D01*
X150765716Y-110299243D01*
X150768039Y-110304224D01*
X150768039Y-110304225D01*
X150860151Y-110501762D01*
X150860154Y-110501767D01*
X150862477Y-110506749D01*
X150993802Y-110694300D01*
X151155700Y-110856198D01*
X151160208Y-110859355D01*
X151160211Y-110859357D01*
X151238389Y-110914098D01*
X151343251Y-110987523D01*
X151348233Y-110989846D01*
X151348238Y-110989849D01*
X151545775Y-111081961D01*
X151550757Y-111084284D01*
X151556065Y-111085706D01*
X151556067Y-111085707D01*
X151766598Y-111142119D01*
X151766600Y-111142119D01*
X151771913Y-111143543D01*
X152000000Y-111163498D01*
X152228087Y-111143543D01*
X152233400Y-111142119D01*
X152233402Y-111142119D01*
X152443933Y-111085707D01*
X152443935Y-111085706D01*
X152449243Y-111084284D01*
X152454225Y-111081961D01*
X152651762Y-110989849D01*
X152651767Y-110989846D01*
X152656749Y-110987523D01*
X152761611Y-110914098D01*
X152839789Y-110859357D01*
X152839792Y-110859355D01*
X152844300Y-110856198D01*
X153006198Y-110694300D01*
X153137523Y-110506749D01*
X153139846Y-110501767D01*
X153139849Y-110501762D01*
X153231961Y-110304225D01*
X153231961Y-110304224D01*
X153234284Y-110299243D01*
X153272078Y-110158197D01*
X153292119Y-110083402D01*
X153292119Y-110083400D01*
X153293543Y-110078087D01*
X153313498Y-109850000D01*
X153293543Y-109621913D01*
X153271082Y-109538087D01*
X153235707Y-109406067D01*
X153235706Y-109406065D01*
X153234284Y-109400757D01*
X153193595Y-109313498D01*
X153139849Y-109198238D01*
X153139846Y-109198233D01*
X153137523Y-109193251D01*
X153059563Y-109081913D01*
X153009357Y-109010211D01*
X153009355Y-109010208D01*
X153006198Y-109005700D01*
X152844300Y-108843802D01*
X152839792Y-108840645D01*
X152839789Y-108840643D01*
X152761611Y-108785902D01*
X152656749Y-108712477D01*
X152651767Y-108710154D01*
X152651762Y-108710151D01*
X152454225Y-108618039D01*
X152454224Y-108618039D01*
X152449243Y-108615716D01*
X152443935Y-108614294D01*
X152443933Y-108614293D01*
X152233402Y-108557881D01*
X152233400Y-108557881D01*
X152228087Y-108556457D01*
X152000000Y-108536502D01*
X151771913Y-108556457D01*
X151766600Y-108557881D01*
X151766598Y-108557881D01*
X151556067Y-108614293D01*
X151556065Y-108614294D01*
X151550757Y-108615716D01*
X151545776Y-108618039D01*
X151545775Y-108618039D01*
X151348238Y-108710151D01*
X151348233Y-108710154D01*
X151343251Y-108712477D01*
X151238389Y-108785902D01*
X151160211Y-108840643D01*
X151160208Y-108840645D01*
X151155700Y-108843802D01*
X150993802Y-109005700D01*
X150990645Y-109010208D01*
X150990643Y-109010211D01*
X150940437Y-109081913D01*
X150862477Y-109193251D01*
X150860154Y-109198233D01*
X150860151Y-109198238D01*
X150806405Y-109313498D01*
X150765716Y-109400757D01*
X150764294Y-109406065D01*
X150764293Y-109406067D01*
X150728918Y-109538087D01*
X150706457Y-109621913D01*
X150686502Y-109850000D01*
X136000000Y-109850000D01*
X136000000Y-108000000D01*
X155836502Y-108000000D01*
X155856457Y-108228087D01*
X155915716Y-108449243D01*
X155918039Y-108454224D01*
X155918039Y-108454225D01*
X156010151Y-108651762D01*
X156010154Y-108651767D01*
X156012477Y-108656749D01*
X156143802Y-108844300D01*
X156305700Y-109006198D01*
X156310208Y-109009355D01*
X156310211Y-109009357D01*
X156311431Y-109010211D01*
X156493251Y-109137523D01*
X156498233Y-109139846D01*
X156498238Y-109139849D01*
X156695775Y-109231961D01*
X156700757Y-109234284D01*
X156706065Y-109235706D01*
X156706067Y-109235707D01*
X156916598Y-109292119D01*
X156916600Y-109292119D01*
X156921913Y-109293543D01*
X157150000Y-109313498D01*
X157378087Y-109293543D01*
X157383400Y-109292119D01*
X157383402Y-109292119D01*
X157593933Y-109235707D01*
X157593935Y-109235706D01*
X157599243Y-109234284D01*
X157604225Y-109231961D01*
X157801762Y-109139849D01*
X157801767Y-109139846D01*
X157806749Y-109137523D01*
X157988569Y-109010211D01*
X157989789Y-109009357D01*
X157989792Y-109009355D01*
X157994300Y-109006198D01*
X158156198Y-108844300D01*
X158287523Y-108656749D01*
X158289846Y-108651767D01*
X158289849Y-108651762D01*
X158381961Y-108454225D01*
X158381961Y-108454224D01*
X158384284Y-108449243D01*
X158443543Y-108228087D01*
X158463498Y-108000000D01*
X168536502Y-108000000D01*
X168556457Y-108228087D01*
X168615716Y-108449243D01*
X168618039Y-108454224D01*
X168618039Y-108454225D01*
X168710151Y-108651762D01*
X168710154Y-108651767D01*
X168712477Y-108656749D01*
X168843802Y-108844300D01*
X169005700Y-109006198D01*
X169010208Y-109009355D01*
X169010211Y-109009357D01*
X169011431Y-109010211D01*
X169193251Y-109137523D01*
X169198233Y-109139846D01*
X169198238Y-109139849D01*
X169395775Y-109231961D01*
X169400757Y-109234284D01*
X169406065Y-109235706D01*
X169406067Y-109235707D01*
X169616598Y-109292119D01*
X169616600Y-109292119D01*
X169621913Y-109293543D01*
X169850000Y-109313498D01*
X169889982Y-109310000D01*
X177686502Y-109310000D01*
X177706457Y-109538087D01*
X177707881Y-109543400D01*
X177707881Y-109543402D01*
X177730387Y-109627393D01*
X177765716Y-109759243D01*
X177768039Y-109764224D01*
X177768039Y-109764225D01*
X177860151Y-109961762D01*
X177860154Y-109961767D01*
X177862477Y-109966749D01*
X177865634Y-109971257D01*
X177944159Y-110083402D01*
X177993802Y-110154300D01*
X178155700Y-110316198D01*
X178160208Y-110319355D01*
X178160211Y-110319357D01*
X178238389Y-110374098D01*
X178343251Y-110447523D01*
X178348233Y-110449846D01*
X178348238Y-110449849D01*
X178545775Y-110541961D01*
X178550757Y-110544284D01*
X178556065Y-110545706D01*
X178556067Y-110545707D01*
X178766598Y-110602119D01*
X178766600Y-110602119D01*
X178771913Y-110603543D01*
X179000000Y-110623498D01*
X179228087Y-110603543D01*
X179233400Y-110602119D01*
X179233402Y-110602119D01*
X179443933Y-110545707D01*
X179443935Y-110545706D01*
X179449243Y-110544284D01*
X179454225Y-110541961D01*
X179651762Y-110449849D01*
X179651767Y-110449846D01*
X179656749Y-110447523D01*
X179761611Y-110374098D01*
X179839789Y-110319357D01*
X179839792Y-110319355D01*
X179844300Y-110316198D01*
X180006198Y-110154300D01*
X180055842Y-110083402D01*
X180134366Y-109971257D01*
X180137523Y-109966749D01*
X180139846Y-109961767D01*
X180139849Y-109961762D01*
X180231961Y-109764225D01*
X180231961Y-109764224D01*
X180234284Y-109759243D01*
X180269614Y-109627393D01*
X180292119Y-109543402D01*
X180292119Y-109543400D01*
X180293543Y-109538087D01*
X180313498Y-109310000D01*
X180293543Y-109081913D01*
X180292119Y-109076598D01*
X180235707Y-108866067D01*
X180235706Y-108866065D01*
X180234284Y-108860757D01*
X180224507Y-108839789D01*
X180139849Y-108658238D01*
X180139846Y-108658233D01*
X180137523Y-108653251D01*
X180006198Y-108465700D01*
X179844300Y-108303802D01*
X179839792Y-108300645D01*
X179839789Y-108300643D01*
X179728342Y-108222607D01*
X179656749Y-108172477D01*
X179651767Y-108170154D01*
X179651762Y-108170151D01*
X179454225Y-108078039D01*
X179454224Y-108078039D01*
X179449243Y-108075716D01*
X179443935Y-108074294D01*
X179443933Y-108074293D01*
X179233402Y-108017881D01*
X179233400Y-108017881D01*
X179228087Y-108016457D01*
X179000000Y-107996502D01*
X178771913Y-108016457D01*
X178766600Y-108017881D01*
X178766598Y-108017881D01*
X178556067Y-108074293D01*
X178556065Y-108074294D01*
X178550757Y-108075716D01*
X178545776Y-108078039D01*
X178545775Y-108078039D01*
X178348238Y-108170151D01*
X178348233Y-108170154D01*
X178343251Y-108172477D01*
X178271658Y-108222607D01*
X178160211Y-108300643D01*
X178160208Y-108300645D01*
X178155700Y-108303802D01*
X177993802Y-108465700D01*
X177862477Y-108653251D01*
X177860154Y-108658233D01*
X177860151Y-108658238D01*
X177775493Y-108839789D01*
X177765716Y-108860757D01*
X177764294Y-108866065D01*
X177764293Y-108866067D01*
X177707881Y-109076598D01*
X177706457Y-109081913D01*
X177686502Y-109310000D01*
X169889982Y-109310000D01*
X170078087Y-109293543D01*
X170083400Y-109292119D01*
X170083402Y-109292119D01*
X170293933Y-109235707D01*
X170293935Y-109235706D01*
X170299243Y-109234284D01*
X170304225Y-109231961D01*
X170501762Y-109139849D01*
X170501767Y-109139846D01*
X170506749Y-109137523D01*
X170688569Y-109010211D01*
X170689789Y-109009357D01*
X170689792Y-109009355D01*
X170694300Y-109006198D01*
X170856198Y-108844300D01*
X170987523Y-108656749D01*
X170989846Y-108651767D01*
X170989849Y-108651762D01*
X171081961Y-108454225D01*
X171081961Y-108454224D01*
X171084284Y-108449243D01*
X171143543Y-108228087D01*
X171163498Y-108000000D01*
X171143543Y-107771913D01*
X171084284Y-107550757D01*
X171081961Y-107545775D01*
X170989849Y-107348238D01*
X170989846Y-107348233D01*
X170987523Y-107343251D01*
X170856198Y-107155700D01*
X170694300Y-106993802D01*
X170689792Y-106990645D01*
X170689789Y-106990643D01*
X170611611Y-106935902D01*
X170506749Y-106862477D01*
X170501767Y-106860154D01*
X170501762Y-106860151D01*
X170304225Y-106768039D01*
X170304224Y-106768039D01*
X170299243Y-106765716D01*
X170293935Y-106764294D01*
X170293933Y-106764293D01*
X170083402Y-106707881D01*
X170083400Y-106707881D01*
X170078087Y-106706457D01*
X169850000Y-106686502D01*
X169621913Y-106706457D01*
X169616600Y-106707881D01*
X169616598Y-106707881D01*
X169406067Y-106764293D01*
X169406065Y-106764294D01*
X169400757Y-106765716D01*
X169395776Y-106768039D01*
X169395775Y-106768039D01*
X169198238Y-106860151D01*
X169198233Y-106860154D01*
X169193251Y-106862477D01*
X169088389Y-106935902D01*
X169010211Y-106990643D01*
X169010208Y-106990645D01*
X169005700Y-106993802D01*
X168843802Y-107155700D01*
X168712477Y-107343251D01*
X168710154Y-107348233D01*
X168710151Y-107348238D01*
X168618039Y-107545775D01*
X168615716Y-107550757D01*
X168556457Y-107771913D01*
X168536502Y-108000000D01*
X158463498Y-108000000D01*
X158443543Y-107771913D01*
X158384284Y-107550757D01*
X158381961Y-107545775D01*
X158289849Y-107348238D01*
X158289846Y-107348233D01*
X158287523Y-107343251D01*
X158156198Y-107155700D01*
X157994300Y-106993802D01*
X157989792Y-106990645D01*
X157989789Y-106990643D01*
X157911611Y-106935902D01*
X157806749Y-106862477D01*
X157801767Y-106860154D01*
X157801762Y-106860151D01*
X157604225Y-106768039D01*
X157604224Y-106768039D01*
X157599243Y-106765716D01*
X157593935Y-106764294D01*
X157593933Y-106764293D01*
X157383402Y-106707881D01*
X157383400Y-106707881D01*
X157378087Y-106706457D01*
X157150000Y-106686502D01*
X156921913Y-106706457D01*
X156916600Y-106707881D01*
X156916598Y-106707881D01*
X156706067Y-106764293D01*
X156706065Y-106764294D01*
X156700757Y-106765716D01*
X156695776Y-106768039D01*
X156695775Y-106768039D01*
X156498238Y-106860151D01*
X156498233Y-106860154D01*
X156493251Y-106862477D01*
X156388389Y-106935902D01*
X156310211Y-106990643D01*
X156310208Y-106990645D01*
X156305700Y-106993802D01*
X156143802Y-107155700D01*
X156012477Y-107343251D01*
X156010154Y-107348233D01*
X156010151Y-107348238D01*
X155918039Y-107545775D01*
X155915716Y-107550757D01*
X155856457Y-107771913D01*
X155836502Y-108000000D01*
X136000000Y-108000000D01*
X136000000Y-104440000D01*
X175186502Y-104440000D01*
X175206457Y-104668087D01*
X175207881Y-104673400D01*
X175207881Y-104673402D01*
X175245537Y-104813933D01*
X175265716Y-104889243D01*
X175268039Y-104894224D01*
X175268039Y-104894225D01*
X175360151Y-105091762D01*
X175360154Y-105091767D01*
X175362477Y-105096749D01*
X175493802Y-105284300D01*
X175655700Y-105446198D01*
X175660208Y-105449355D01*
X175660211Y-105449357D01*
X175738389Y-105504098D01*
X175843251Y-105577523D01*
X175848233Y-105579846D01*
X175848238Y-105579849D01*
X176028750Y-105664022D01*
X176050757Y-105674284D01*
X176056065Y-105675706D01*
X176056067Y-105675707D01*
X176266598Y-105732119D01*
X176266600Y-105732119D01*
X176271913Y-105733543D01*
X176500000Y-105753498D01*
X176728087Y-105733543D01*
X176733400Y-105732119D01*
X176733402Y-105732119D01*
X176943933Y-105675707D01*
X176943935Y-105675706D01*
X176949243Y-105674284D01*
X176971250Y-105664022D01*
X177151762Y-105579849D01*
X177151767Y-105579846D01*
X177156749Y-105577523D01*
X177261611Y-105504098D01*
X177339789Y-105449357D01*
X177339792Y-105449355D01*
X177344300Y-105446198D01*
X177506198Y-105284300D01*
X177637523Y-105096749D01*
X177639846Y-105091767D01*
X177639849Y-105091762D01*
X177731961Y-104894225D01*
X177731961Y-104894224D01*
X177734284Y-104889243D01*
X177754464Y-104813933D01*
X177792119Y-104673402D01*
X177792119Y-104673400D01*
X177793543Y-104668087D01*
X177813498Y-104440000D01*
X177807374Y-104370000D01*
X180436502Y-104370000D01*
X180456457Y-104598087D01*
X180457881Y-104603400D01*
X180457881Y-104603402D01*
X180475214Y-104668087D01*
X180515716Y-104819243D01*
X180518039Y-104824224D01*
X180518039Y-104824225D01*
X180610151Y-105021762D01*
X180610154Y-105021767D01*
X180612477Y-105026749D01*
X180743802Y-105214300D01*
X180905700Y-105376198D01*
X180910208Y-105379355D01*
X180910211Y-105379357D01*
X180988389Y-105434098D01*
X181093251Y-105507523D01*
X181098233Y-105509846D01*
X181098238Y-105509849D01*
X181295775Y-105601961D01*
X181300757Y-105604284D01*
X181306065Y-105605706D01*
X181306067Y-105605707D01*
X181516598Y-105662119D01*
X181516600Y-105662119D01*
X181521913Y-105663543D01*
X181750000Y-105683498D01*
X181978087Y-105663543D01*
X181983400Y-105662119D01*
X181983402Y-105662119D01*
X182193933Y-105605707D01*
X182193935Y-105605706D01*
X182199243Y-105604284D01*
X182204225Y-105601961D01*
X182401762Y-105509849D01*
X182401767Y-105509846D01*
X182406749Y-105507523D01*
X182511611Y-105434098D01*
X182589789Y-105379357D01*
X182589792Y-105379355D01*
X182594300Y-105376198D01*
X182756198Y-105214300D01*
X182887523Y-105026749D01*
X182889846Y-105021767D01*
X182889849Y-105021762D01*
X182981961Y-104824225D01*
X182981961Y-104824224D01*
X182984284Y-104819243D01*
X183024787Y-104668087D01*
X183042119Y-104603402D01*
X183042119Y-104603400D01*
X183043543Y-104598087D01*
X183063498Y-104370000D01*
X183043543Y-104141913D01*
X183042119Y-104136598D01*
X182985707Y-103926067D01*
X182985706Y-103926065D01*
X182984284Y-103920757D01*
X182922490Y-103788238D01*
X182889849Y-103718238D01*
X182889846Y-103718233D01*
X182887523Y-103713251D01*
X182756198Y-103525700D01*
X182594300Y-103363802D01*
X182589792Y-103360645D01*
X182589789Y-103360643D01*
X182503397Y-103300151D01*
X182406749Y-103232477D01*
X182401767Y-103230154D01*
X182401762Y-103230151D01*
X182204225Y-103138039D01*
X182204224Y-103138039D01*
X182199243Y-103135716D01*
X182193935Y-103134294D01*
X182193933Y-103134293D01*
X181983402Y-103077881D01*
X181983400Y-103077881D01*
X181978087Y-103076457D01*
X181750000Y-103056502D01*
X181521913Y-103076457D01*
X181516600Y-103077881D01*
X181516598Y-103077881D01*
X181306067Y-103134293D01*
X181306065Y-103134294D01*
X181300757Y-103135716D01*
X181295776Y-103138039D01*
X181295775Y-103138039D01*
X181098238Y-103230151D01*
X181098233Y-103230154D01*
X181093251Y-103232477D01*
X180996603Y-103300151D01*
X180910211Y-103360643D01*
X180910208Y-103360645D01*
X180905700Y-103363802D01*
X180743802Y-103525700D01*
X180612477Y-103713251D01*
X180610154Y-103718233D01*
X180610151Y-103718238D01*
X180577510Y-103788238D01*
X180515716Y-103920757D01*
X180514294Y-103926065D01*
X180514293Y-103926067D01*
X180457881Y-104136598D01*
X180456457Y-104141913D01*
X180436502Y-104370000D01*
X177807374Y-104370000D01*
X177793543Y-104211913D01*
X177776255Y-104147393D01*
X177735707Y-103996067D01*
X177735706Y-103996065D01*
X177734284Y-103990757D01*
X177699320Y-103915775D01*
X177639849Y-103788238D01*
X177639846Y-103788233D01*
X177637523Y-103783251D01*
X177506198Y-103595700D01*
X177344300Y-103433802D01*
X177339792Y-103430645D01*
X177339789Y-103430643D01*
X177239818Y-103360643D01*
X177156749Y-103302477D01*
X177151767Y-103300154D01*
X177151762Y-103300151D01*
X176954225Y-103208039D01*
X176954224Y-103208039D01*
X176949243Y-103205716D01*
X176943935Y-103204294D01*
X176943933Y-103204293D01*
X176733402Y-103147881D01*
X176733400Y-103147881D01*
X176728087Y-103146457D01*
X176500000Y-103126502D01*
X176271913Y-103146457D01*
X176266600Y-103147881D01*
X176266598Y-103147881D01*
X176056067Y-103204293D01*
X176056065Y-103204294D01*
X176050757Y-103205716D01*
X176045776Y-103208039D01*
X176045775Y-103208039D01*
X175848238Y-103300151D01*
X175848233Y-103300154D01*
X175843251Y-103302477D01*
X175760182Y-103360643D01*
X175660211Y-103430643D01*
X175660208Y-103430645D01*
X175655700Y-103433802D01*
X175493802Y-103595700D01*
X175362477Y-103783251D01*
X175360154Y-103788233D01*
X175360151Y-103788238D01*
X175300680Y-103915775D01*
X175265716Y-103990757D01*
X175264294Y-103996065D01*
X175264293Y-103996067D01*
X175223745Y-104147393D01*
X175206457Y-104211913D01*
X175186502Y-104440000D01*
X136000000Y-104440000D01*
X136000000Y-102538134D01*
X177691500Y-102538134D01*
X177698255Y-102600316D01*
X177749385Y-102736705D01*
X177836739Y-102853261D01*
X177953295Y-102940615D01*
X178089684Y-102991745D01*
X178151866Y-102998500D01*
X179848134Y-102998500D01*
X179910316Y-102991745D01*
X180046705Y-102940615D01*
X180163261Y-102853261D01*
X180250615Y-102736705D01*
X180301745Y-102600316D01*
X180308500Y-102538134D01*
X180308500Y-100841866D01*
X180301745Y-100779684D01*
X180250615Y-100643295D01*
X180163261Y-100526739D01*
X180046705Y-100439385D01*
X179910316Y-100388255D01*
X179848134Y-100381500D01*
X178151866Y-100381500D01*
X178089684Y-100388255D01*
X177953295Y-100439385D01*
X177836739Y-100526739D01*
X177749385Y-100643295D01*
X177698255Y-100779684D01*
X177691500Y-100841866D01*
X177691500Y-102538134D01*
X136000000Y-102538134D01*
X136000000Y-97150000D01*
X150686502Y-97150000D01*
X150706457Y-97378087D01*
X150765716Y-97599243D01*
X150768039Y-97604224D01*
X150768039Y-97604225D01*
X150860151Y-97801762D01*
X150860154Y-97801767D01*
X150862477Y-97806749D01*
X150935902Y-97911611D01*
X150985505Y-97982450D01*
X150993802Y-97994300D01*
X151155700Y-98156198D01*
X151160208Y-98159355D01*
X151160211Y-98159357D01*
X151190147Y-98180318D01*
X151343251Y-98287523D01*
X151348233Y-98289846D01*
X151348238Y-98289849D01*
X151498216Y-98359784D01*
X151550757Y-98384284D01*
X151556065Y-98385706D01*
X151556067Y-98385707D01*
X151766598Y-98442119D01*
X151766600Y-98442119D01*
X151771913Y-98443543D01*
X152000000Y-98463498D01*
X152228087Y-98443543D01*
X152233400Y-98442119D01*
X152233402Y-98442119D01*
X152443933Y-98385707D01*
X152443935Y-98385706D01*
X152449243Y-98384284D01*
X152501784Y-98359784D01*
X152651762Y-98289849D01*
X152651767Y-98289846D01*
X152656749Y-98287523D01*
X152809853Y-98180318D01*
X152839789Y-98159357D01*
X152839792Y-98159355D01*
X152844300Y-98156198D01*
X153006198Y-97994300D01*
X153014496Y-97982450D01*
X153064098Y-97911611D01*
X153137523Y-97806749D01*
X153139846Y-97801767D01*
X153139849Y-97801762D01*
X153231961Y-97604225D01*
X153231961Y-97604224D01*
X153234284Y-97599243D01*
X153293543Y-97378087D01*
X153299021Y-97315469D01*
X176587095Y-97315469D01*
X176587392Y-97320622D01*
X176587392Y-97320625D01*
X176593067Y-97419041D01*
X176600427Y-97546697D01*
X176601564Y-97551743D01*
X176601565Y-97551749D01*
X176633741Y-97694523D01*
X176651346Y-97772642D01*
X176653288Y-97777424D01*
X176653289Y-97777428D01*
X176736540Y-97982450D01*
X176738484Y-97987237D01*
X176859501Y-98184719D01*
X177011147Y-98359784D01*
X177189349Y-98507730D01*
X177389322Y-98624584D01*
X177605694Y-98707209D01*
X177610760Y-98708240D01*
X177610761Y-98708240D01*
X177663846Y-98719040D01*
X177832656Y-98753385D01*
X177963324Y-98758176D01*
X178058949Y-98761683D01*
X178058953Y-98761683D01*
X178064113Y-98761872D01*
X178069233Y-98761216D01*
X178069235Y-98761216D01*
X178142270Y-98751860D01*
X178293847Y-98732442D01*
X178298795Y-98730957D01*
X178298802Y-98730956D01*
X178510747Y-98667369D01*
X178515690Y-98665886D01*
X178596236Y-98626427D01*
X178719049Y-98566262D01*
X178719052Y-98566260D01*
X178723684Y-98563991D01*
X178912243Y-98429494D01*
X179076303Y-98266005D01*
X179211458Y-98077917D01*
X179255014Y-97989789D01*
X179311784Y-97874922D01*
X179311785Y-97874920D01*
X179314078Y-97870280D01*
X179381408Y-97648671D01*
X179411640Y-97419041D01*
X179413327Y-97350000D01*
X179396434Y-97144525D01*
X179394773Y-97124318D01*
X179394772Y-97124312D01*
X179394349Y-97119167D01*
X179346179Y-96927393D01*
X179339184Y-96899544D01*
X179339183Y-96899540D01*
X179337925Y-96894533D01*
X179335866Y-96889797D01*
X179247630Y-96686868D01*
X179247628Y-96686865D01*
X179245570Y-96682131D01*
X179119764Y-96487665D01*
X178963887Y-96316358D01*
X178959836Y-96313159D01*
X178959832Y-96313155D01*
X178786177Y-96176011D01*
X178786172Y-96176008D01*
X178782123Y-96172810D01*
X178777607Y-96170317D01*
X178777604Y-96170315D01*
X178583879Y-96063373D01*
X178583875Y-96063371D01*
X178579355Y-96060876D01*
X178574486Y-96059152D01*
X178574482Y-96059150D01*
X178365903Y-95985288D01*
X178365899Y-95985287D01*
X178361028Y-95983562D01*
X178355935Y-95982655D01*
X178355932Y-95982654D01*
X178138095Y-95943851D01*
X178138089Y-95943850D01*
X178133006Y-95942945D01*
X178060096Y-95942054D01*
X177906581Y-95940179D01*
X177906579Y-95940179D01*
X177901411Y-95940116D01*
X177672464Y-95975150D01*
X177452314Y-96047106D01*
X177447726Y-96049494D01*
X177447722Y-96049496D01*
X177266562Y-96143802D01*
X177246872Y-96154052D01*
X177242739Y-96157155D01*
X177242736Y-96157157D01*
X177217625Y-96176011D01*
X177061655Y-96293117D01*
X176901639Y-96460564D01*
X176898725Y-96464836D01*
X176898724Y-96464837D01*
X176825348Y-96572402D01*
X176771119Y-96651899D01*
X176673602Y-96861981D01*
X176611707Y-97085169D01*
X176587095Y-97315469D01*
X153299021Y-97315469D01*
X153313498Y-97150000D01*
X153293543Y-96921913D01*
X153287549Y-96899544D01*
X153235707Y-96706067D01*
X153235706Y-96706065D01*
X153234284Y-96700757D01*
X153231961Y-96695775D01*
X153139849Y-96498238D01*
X153139846Y-96498233D01*
X153137523Y-96493251D01*
X153006198Y-96305700D01*
X152844300Y-96143802D01*
X152839792Y-96140645D01*
X152839789Y-96140643D01*
X152703909Y-96045499D01*
X152656749Y-96012477D01*
X152651767Y-96010154D01*
X152651762Y-96010151D01*
X152454225Y-95918039D01*
X152454224Y-95918039D01*
X152449243Y-95915716D01*
X152443935Y-95914294D01*
X152443933Y-95914293D01*
X152233402Y-95857881D01*
X152233400Y-95857881D01*
X152228087Y-95856457D01*
X152000000Y-95836502D01*
X151771913Y-95856457D01*
X151766600Y-95857881D01*
X151766598Y-95857881D01*
X151556067Y-95914293D01*
X151556065Y-95914294D01*
X151550757Y-95915716D01*
X151545776Y-95918039D01*
X151545775Y-95918039D01*
X151348238Y-96010151D01*
X151348233Y-96010154D01*
X151343251Y-96012477D01*
X151296091Y-96045499D01*
X151160211Y-96140643D01*
X151160208Y-96140645D01*
X151155700Y-96143802D01*
X150993802Y-96305700D01*
X150862477Y-96493251D01*
X150860154Y-96498233D01*
X150860151Y-96498238D01*
X150768039Y-96695775D01*
X150765716Y-96700757D01*
X150764294Y-96706065D01*
X150764293Y-96706067D01*
X150712451Y-96899544D01*
X150706457Y-96921913D01*
X150686502Y-97150000D01*
X136000000Y-97150000D01*
X136000000Y-94000000D01*
X159236835Y-94000000D01*
X159255465Y-94236711D01*
X159310895Y-94467594D01*
X159401760Y-94686963D01*
X159404346Y-94691183D01*
X159523241Y-94885202D01*
X159523245Y-94885208D01*
X159525824Y-94889416D01*
X159680031Y-95069969D01*
X159860584Y-95224176D01*
X159864792Y-95226755D01*
X159864798Y-95226759D01*
X160058817Y-95345654D01*
X160063037Y-95348240D01*
X160067607Y-95350133D01*
X160067611Y-95350135D01*
X160277833Y-95437211D01*
X160282406Y-95439105D01*
X160362609Y-95458360D01*
X160508476Y-95493380D01*
X160508482Y-95493381D01*
X160513289Y-95494535D01*
X160750000Y-95513165D01*
X160986711Y-95494535D01*
X160991518Y-95493381D01*
X160991524Y-95493380D01*
X161137391Y-95458360D01*
X161217594Y-95439105D01*
X161222167Y-95437211D01*
X161432389Y-95350135D01*
X161432393Y-95350133D01*
X161436963Y-95348240D01*
X161441183Y-95345654D01*
X161635202Y-95226759D01*
X161635208Y-95226755D01*
X161639416Y-95224176D01*
X161819969Y-95069969D01*
X161974176Y-94889416D01*
X161976755Y-94885208D01*
X161976759Y-94885202D01*
X162095654Y-94691183D01*
X162098240Y-94686963D01*
X162189105Y-94467594D01*
X162244535Y-94236711D01*
X162263165Y-94000000D01*
X162244535Y-93763289D01*
X162189105Y-93532406D01*
X162098240Y-93313037D01*
X162095654Y-93308817D01*
X161976759Y-93114798D01*
X161976755Y-93114792D01*
X161974176Y-93110584D01*
X161819969Y-92930031D01*
X161639416Y-92775824D01*
X161635208Y-92773245D01*
X161635202Y-92773241D01*
X161441183Y-92654346D01*
X161436963Y-92651760D01*
X161432393Y-92649867D01*
X161432389Y-92649865D01*
X161222167Y-92562789D01*
X161222165Y-92562788D01*
X161217594Y-92560895D01*
X161137391Y-92541640D01*
X160991524Y-92506620D01*
X160991518Y-92506619D01*
X160986711Y-92505465D01*
X160750000Y-92486835D01*
X160513289Y-92505465D01*
X160508482Y-92506619D01*
X160508476Y-92506620D01*
X160362609Y-92541640D01*
X160282406Y-92560895D01*
X160277835Y-92562788D01*
X160277833Y-92562789D01*
X160067611Y-92649865D01*
X160067607Y-92649867D01*
X160063037Y-92651760D01*
X160058817Y-92654346D01*
X159864798Y-92773241D01*
X159864792Y-92773245D01*
X159860584Y-92775824D01*
X159680031Y-92930031D01*
X159525824Y-93110584D01*
X159523245Y-93114792D01*
X159523241Y-93114798D01*
X159404346Y-93308817D01*
X159401760Y-93313037D01*
X159310895Y-93532406D01*
X159255465Y-93763289D01*
X159236835Y-94000000D01*
X136000000Y-94000000D01*
X136000000Y-89130000D01*
X180436502Y-89130000D01*
X180456457Y-89358087D01*
X180515716Y-89579243D01*
X180518039Y-89584224D01*
X180518039Y-89584225D01*
X180610151Y-89781762D01*
X180610154Y-89781767D01*
X180612477Y-89786749D01*
X180743802Y-89974300D01*
X180905700Y-90136198D01*
X180910208Y-90139355D01*
X180910211Y-90139357D01*
X180988389Y-90194098D01*
X181093251Y-90267523D01*
X181098233Y-90269846D01*
X181098238Y-90269849D01*
X181295775Y-90361961D01*
X181300757Y-90364284D01*
X181306065Y-90365706D01*
X181306067Y-90365707D01*
X181516598Y-90422119D01*
X181516600Y-90422119D01*
X181521913Y-90423543D01*
X181750000Y-90443498D01*
X181978087Y-90423543D01*
X181983400Y-90422119D01*
X181983402Y-90422119D01*
X182193933Y-90365707D01*
X182193935Y-90365706D01*
X182199243Y-90364284D01*
X182204225Y-90361961D01*
X182401762Y-90269849D01*
X182401767Y-90269846D01*
X182406749Y-90267523D01*
X182511611Y-90194098D01*
X182589789Y-90139357D01*
X182589792Y-90139355D01*
X182594300Y-90136198D01*
X182756198Y-89974300D01*
X182887523Y-89786749D01*
X182889846Y-89781767D01*
X182889849Y-89781762D01*
X182981961Y-89584225D01*
X182981961Y-89584224D01*
X182984284Y-89579243D01*
X183043543Y-89358087D01*
X183063498Y-89130000D01*
X183043543Y-88901913D01*
X182984284Y-88680757D01*
X182981961Y-88675775D01*
X182889849Y-88478238D01*
X182889846Y-88478233D01*
X182887523Y-88473251D01*
X182756198Y-88285700D01*
X182594300Y-88123802D01*
X182589792Y-88120645D01*
X182589789Y-88120643D01*
X182511611Y-88065902D01*
X182406749Y-87992477D01*
X182401767Y-87990154D01*
X182401762Y-87990151D01*
X182204225Y-87898039D01*
X182204224Y-87898039D01*
X182199243Y-87895716D01*
X182193935Y-87894294D01*
X182193933Y-87894293D01*
X181983402Y-87837881D01*
X181983400Y-87837881D01*
X181978087Y-87836457D01*
X181750000Y-87816502D01*
X181521913Y-87836457D01*
X181516600Y-87837881D01*
X181516598Y-87837881D01*
X181306067Y-87894293D01*
X181306065Y-87894294D01*
X181300757Y-87895716D01*
X181295776Y-87898039D01*
X181295775Y-87898039D01*
X181098238Y-87990151D01*
X181098233Y-87990154D01*
X181093251Y-87992477D01*
X180988389Y-88065902D01*
X180910211Y-88120643D01*
X180910208Y-88120645D01*
X180905700Y-88123802D01*
X180743802Y-88285700D01*
X180612477Y-88473251D01*
X180610154Y-88478233D01*
X180610151Y-88478238D01*
X180518039Y-88675775D01*
X180515716Y-88680757D01*
X180456457Y-88901913D01*
X180436502Y-89130000D01*
X136000000Y-89130000D01*
X136000000Y-83052190D01*
X136020002Y-82984069D01*
X136036905Y-82963095D01*
X136963095Y-82036905D01*
X137025407Y-82002879D01*
X137052190Y-82000000D01*
X150977880Y-82000000D01*
X151046001Y-82020002D01*
G37*
%TD.AperFunction*%
%TD*%
M02*
